---------------------------------------------------------
Petsc Release Version 3.7.6, unknown  Mon Sep 25 01:07:55 2017
./SRMGfourier on a linux-gn, 1 proc. with options:
---------------------------------------------------------
************************************************************************************************************************
***             WIDEN YOUR WINDOW TO 120 CHARACTERS.  Use 'enscript -r -fCourier9' to print this document            ***
************************************************************************************************************************

---------------------------------------------- PETSc Performance Summary: ----------------------------------------------

./SRMGfourier on a linux-gnu-c-debug named jrt54-Blade with 1 processor, by jrt54 Mon Sep 25 01:08:53 2017
Using Petsc Release Version 3.7.6, unknown 

                         Max       Max/Min        Avg      Total 
Time (sec):           5.749e+01      1.00000   5.749e+01
Objects:              9.872e+03      1.00000   9.872e+03
Flops:                5.575e+09      1.00000   5.575e+09  5.575e+09
Flops/sec:            9.698e+07      1.00000   9.698e+07  9.698e+07
Memory:               1.770e+07      1.00000              1.770e+07
MPI Messages:         0.000e+00      0.00000   0.000e+00  0.000e+00
MPI Message Lengths:  0.000e+00      0.00000   0.000e+00  0.000e+00
MPI Reductions:       0.000e+00      0.00000

Flop counting convention: 1 flop = 1 real number operation of type (multiply/divide/add/subtract)
                            e.g., VecAXPY() for real vectors of length N --> 2N flops
                            and VecAXPY() for complex vectors of length N --> 8N flops

Summary of Stages:   ----- Time ------  ----- Flops -----  --- Messages ---  -- Message Lengths --  -- Reductions --
                        Avg     %Total     Avg     %Total   counts   %Total     Avg         %Total   counts   %Total 
 0:      Main Stage: 5.7488e+01 100.0%  5.5751e+09 100.0%  0.000e+00   0.0%  0.000e+00        0.0%  0.000e+00   0.0% 

------------------------------------------------------------------------------------------------------------------------
See the 'Profiling' chapter of the users' manual for details on interpreting output.
Phase summary info:
   Count: number of times phase was executed
   Time and Flops: Max - maximum over all processors
                   Ratio - ratio of maximum to minimum over all processors
   Mess: number of messages sent
   Avg. len: average message length (bytes)
   Reduct: number of global reductions
   Global: entire computation
   Stage: stages of a computation. Set stages with PetscLogStagePush() and PetscLogStagePop().
      %T - percent time in this phase         %F - percent flops in this phase
      %M - percent messages in this phase     %L - percent message lengths in this phase
      %R - percent reductions in this phase
   Total Mflop/s: 10e-6 * (sum of flops over all processors)/(max time over all processors)
------------------------------------------------------------------------------------------------------------------------


      ##########################################################
      #                                                        #
      #                          WARNING!!!                    #
      #                                                        #
      #   This code was compiled with a debugging option,      #
      #   To get timing results run ./configure                #
      #   using --with-debugging=no, the performance will      #
      #   be generally two or three times faster.              #
      #                                                        #
      ##########################################################


Event                Count      Time (sec)     Flops                             --- Global ---  --- Stage ---   Total
                   Max Ratio  Max     Ratio   Max  Ratio  Mess   Avg len Reduct  %T %F %M %L %R  %T %F %M %L %R Mflop/s
------------------------------------------------------------------------------------------------------------------------

--- Event Stage 0: Main Stage

coarsesolve            1 1.0 1.6440e-02 1.0 7.75e+05 1.0 0.0e+00 0.0e+00 0.0e+00  0  0  0  0  0   0  0  0  0  0    47
KSPGMRESOrthog      2604 1.0 1.3974e-01 1.0 5.99e+07 1.0 0.0e+00 0.0e+00 0.0e+00  0  1  0  0  0   0  1  0  0  0   428
KSPSetUp              85 1.0 8.3895e-03 1.0 0.00e+00 0.0 0.0e+00 0.0e+00 0.0e+00  0  0  0  0  0   0  0  0  0  0     0
KSPSolve              85 1.0 2.1488e+01 1.0 5.57e+09 1.0 0.0e+00 0.0e+00 0.0e+00 37100  0  0  0  37100  0  0  0   259
MatMult             2687 1.0 4.7237e+00 1.0 8.48e+08 1.0 0.0e+00 0.0e+00 0.0e+00  8 15  0  0  0   8 15  0  0  0   180
MatSolve            2772 1.0 5.7825e+00 1.0 8.75e+08 1.0 0.0e+00 0.0e+00 0.0e+00 10 16  0  0  0  10 16  0  0  0   151
MatLUFactorSym        85 1.0 1.3232e-04 1.0 0.00e+00 0.0 0.0e+00 0.0e+00 0.0e+00  0  0  0  0  0   0  0  0  0  0     0
MatLUFactorNum        85 1.0 6.6280e+00 1.0 3.79e+09 1.0 0.0e+00 0.0e+00 0.0e+00 12 68  0  0  0  12 68  0  0  0   571
MatAssemblyBegin      86 1.0 1.7309e-04 1.0 0.00e+00 0.0 0.0e+00 0.0e+00 0.0e+00  0  0  0  0  0   0  0  0  0  0     0
MatAssemblyEnd        86 1.0 1.1849e-04 1.0 0.00e+00 0.0 0.0e+00 0.0e+00 0.0e+00  0  0  0  0  0   0  0  0  0  0     0
Chebpolystuff     206760 1.0 3.1102e-01 1.0 0.00e+00 0.0 0.0e+00 0.0e+00 0.0e+00  1  0  0  0  0   1  0  0  0  0     0
PCSetUp               85 1.0 6.6393e+00 1.0 3.79e+09 1.0 0.0e+00 0.0e+00 0.0e+00 12 68  0  0  0  12 68  0  0  0   570
PCApply             2772 1.0 5.7982e+00 1.0 8.75e+08 1.0 0.0e+00 0.0e+00 0.0e+00 10 16  0  0  0  10 16  0  0  0   151
VecDot             24288 1.0 3.1905e+01 1.0 7.70e+05 1.0 0.0e+00 0.0e+00 0.0e+00 55  0  0  0  0  55  0  0  0  0     0
VecMDot             2604 1.0 5.3136e-02 1.0 2.99e+07 1.0 0.0e+00 0.0e+00 0.0e+00  0  1  0  0  0   0  1  0  0  0   563
VecNorm             2772 1.0 1.0525e-02 1.0 2.12e+06 1.0 0.0e+00 0.0e+00 0.0e+00  0  0  0  0  0   0  0  0  0  0   201
VecScale            2772 1.0 3.6840e+00 1.0 1.06e+06 1.0 0.0e+00 0.0e+00 0.0e+00  6  0  0  0  0   6  0  0  0  0     0
VecCopy              253 1.0 1.0369e-03 1.0 0.00e+00 0.0 0.0e+00 0.0e+00 0.0e+00  0  0  0  0  0   0  0  0  0  0     0
VecSet              9781 1.0 2.7222e-02 1.0 0.00e+00 0.0 0.0e+00 0.0e+00 0.0e+00  0  0  0  0  0   0  0  0  0  0     0
VecAXPY              251 1.0 3.2969e-01 1.0 1.93e+05 1.0 0.0e+00 0.0e+00 0.0e+00  1  0  0  0  0   1  0  0  0  0     1
VecMAXPY            2772 1.0 5.3823e-02 1.0 3.20e+07 1.0 0.0e+00 0.0e+00 0.0e+00  0  1  0  0  0   0  1  0  0  0   594
VecNormalize        2772 1.0 3.7115e+00 1.0 3.18e+06 1.0 0.0e+00 0.0e+00 0.0e+00  6  0  0  0  0   6  0  0  0  0     1
SRMG                   1 1.0 5.7469e+01 1.0 5.57e+09 1.0 0.0e+00 0.0e+00 0.0e+00100100  0  0  0 100100  0  0  0    97
InverseFourier      6072 1.0 3.2472e+01 1.0 7.70e+05 1.0 0.0e+00 0.0e+00 0.0e+00 56  0  0  0  0  56  0  0  0  0     0
FreeingPatches         1 1.0 2.0218e-03 1.0 0.00e+00 0.0 0.0e+00 0.0e+00 0.0e+00  0  0  0  0  0   0  0  0  0  0     0
------------------------------------------------------------------------------------------------------------------------

Memory usage is given in bytes:

Object Type          Creations   Destructions     Memory  Descendants' Mem.
Reports information only for process 0.

--- Event Stage 0: Main Stage

       Krylov Solver     1              1      1451104     0.
              Matrix   171            171    213750792     0.
      Preconditioner     1              1          992     0.
              Vector  9528           3456     14868472     0.
           Index Set   170            170       131920     0.
              Viewer     1              0            0     0.
========================================================================================================================
Average time to get PetscTime(): 4.76837e-08
#PETSc Option Table entries:
-L 3
-N 10
-buffer .3
-history logfourierN_10_L_1_buffer_.3.txt
-log_view
#End of PETSc Option Table entries
Compiled without FORTRAN kernels
Compiled with full precision matrices (default)
sizeof(short) 2 sizeof(int) 4 sizeof(long) 8 sizeof(void*) 8 sizeof(PetscScalar) 8 sizeof(PetscInt) 4
Configure options: --download-mpich --download-f2cblaslapack=1 --download-fftw
-----------------------------------------
Libraries compiled on Fri Aug 25 22:20:03 2017 on jrt54-Blade 
Machine characteristics: Linux-4.10.0-32-generic-x86_64-with-Ubuntu-16.04-xenial
Using PETSc directory: /home/jrt54/petsc
Using PETSc arch: linux-gnu-c-debug
-----------------------------------------

Using C compiler: /home/jrt54/petsc/linux-gnu-c-debug/bin/mpicc    -Wall -Wwrite-strings -Wno-strict-aliasing -Wno-unknown-pragmas -fvisibility=hidden -g3  ${COPTFLAGS} ${CFLAGS}
-----------------------------------------

Using include paths: -I/home/jrt54/petsc/linux-gnu-c-debug/include -I/home/jrt54/petsc/include -I/home/jrt54/petsc/include -I/home/jrt54/petsc/linux-gnu-c-debug/include
-----------------------------------------

Using C linker: /home/jrt54/petsc/linux-gnu-c-debug/bin/mpicc
Using libraries: -Wl,-rpath,/home/jrt54/petsc/linux-gnu-c-debug/lib -L/home/jrt54/petsc/linux-gnu-c-debug/lib -lpetsc -Wl,-rpath,/home/jrt54/petsc/linux-gnu-c-debug/lib -L/home/jrt54/petsc/linux-gnu-c-debug/lib -Wl,-rpath,/usr/lib/gcc/x86_64-linux-gnu/5 -L/usr/lib/gcc/x86_64-linux-gnu/5 -Wl,-rpath,/usr/lib/x86_64-linux-gnu -L/usr/lib/x86_64-linux-gnu -Wl,-rpath,/lib/x86_64-linux-gnu -L/lib/x86_64-linux-gnu -lfftw3_mpi -lfftw3 -lf2clapack -lf2cblas -lm -lpthread -lm -lmpicxx -lstdc++ -lm -ldl -lmpi -lgcc_s -ldl
-----------------------------------------

---------------------------------------------------------
Finished at Mon Sep 25 01:08:53 2017
---------------------------------------------------------
---------------------------------------------------------
Petsc Release Version 3.7.6, unknown  Mon Sep 25 01:29:10 2017
./SRMGfourier on a linux-gn, 1 proc. with options:
---------------------------------------------------------
************************************************************************************************************************
***             WIDEN YOUR WINDOW TO 120 CHARACTERS.  Use 'enscript -r -fCourier9' to print this document            ***
************************************************************************************************************************

---------------------------------------------- PETSc Performance Summary: ----------------------------------------------

./SRMGfourier on a linux-gnu-c-debug named jrt54-Blade with 1 processor, by jrt54 Mon Sep 25 01:30:06 2017
Using Petsc Release Version 3.7.6, unknown 

                         Max       Max/Min        Avg      Total 
Time (sec):           5.618e+01      1.00000   5.618e+01
Objects:              9.872e+03      1.00000   9.872e+03
Flops:                5.575e+09      1.00000   5.575e+09  5.575e+09
Flops/sec:            9.923e+07      1.00000   9.923e+07  9.923e+07
Memory:               1.770e+07      1.00000              1.770e+07
MPI Messages:         0.000e+00      0.00000   0.000e+00  0.000e+00
MPI Message Lengths:  0.000e+00      0.00000   0.000e+00  0.000e+00
MPI Reductions:       0.000e+00      0.00000

Flop counting convention: 1 flop = 1 real number operation of type (multiply/divide/add/subtract)
                            e.g., VecAXPY() for real vectors of length N --> 2N flops
                            and VecAXPY() for complex vectors of length N --> 8N flops

Summary of Stages:   ----- Time ------  ----- Flops -----  --- Messages ---  -- Message Lengths --  -- Reductions --
                        Avg     %Total     Avg     %Total   counts   %Total     Avg         %Total   counts   %Total 
 0:      Main Stage: 5.6185e+01 100.0%  5.5751e+09 100.0%  0.000e+00   0.0%  0.000e+00        0.0%  0.000e+00   0.0% 

------------------------------------------------------------------------------------------------------------------------
See the 'Profiling' chapter of the users' manual for details on interpreting output.
Phase summary info:
   Count: number of times phase was executed
   Time and Flops: Max - maximum over all processors
                   Ratio - ratio of maximum to minimum over all processors
   Mess: number of messages sent
   Avg. len: average message length (bytes)
   Reduct: number of global reductions
   Global: entire computation
   Stage: stages of a computation. Set stages with PetscLogStagePush() and PetscLogStagePop().
      %T - percent time in this phase         %F - percent flops in this phase
      %M - percent messages in this phase     %L - percent message lengths in this phase
      %R - percent reductions in this phase
   Total Mflop/s: 10e-6 * (sum of flops over all processors)/(max time over all processors)
------------------------------------------------------------------------------------------------------------------------


      ##########################################################
      #                                                        #
      #                          WARNING!!!                    #
      #                                                        #
      #   This code was compiled with a debugging option,      #
      #   To get timing results run ./configure                #
      #   using --with-debugging=no, the performance will      #
      #   be generally two or three times faster.              #
      #                                                        #
      ##########################################################


Event                Count      Time (sec)     Flops                             --- Global ---  --- Stage ---   Total
                   Max Ratio  Max     Ratio   Max  Ratio  Mess   Avg len Reduct  %T %F %M %L %R  %T %F %M %L %R Mflop/s
------------------------------------------------------------------------------------------------------------------------

--- Event Stage 0: Main Stage

coarsesolve            1 1.0 1.5837e-02 1.0 7.75e+05 1.0 0.0e+00 0.0e+00 0.0e+00  0  0  0  0  0   0  0  0  0  0    49
KSPGMRESOrthog      2604 1.0 1.3993e-01 1.0 5.99e+07 1.0 0.0e+00 0.0e+00 0.0e+00  0  1  0  0  0   0  1  0  0  0   428
KSPSetUp              85 1.0 8.3251e-03 1.0 0.00e+00 0.0 0.0e+00 0.0e+00 0.0e+00  0  0  0  0  0   0  0  0  0  0     0
KSPSolve              85 1.0 2.1045e+01 1.0 5.57e+09 1.0 0.0e+00 0.0e+00 0.0e+00 37100  0  0  0  37100  0  0  0   265
MatMult             2687 1.0 4.6026e+00 1.0 8.48e+08 1.0 0.0e+00 0.0e+00 0.0e+00  8 15  0  0  0   8 15  0  0  0   184
MatSolve            2772 1.0 5.6532e+00 1.0 8.75e+08 1.0 0.0e+00 0.0e+00 0.0e+00 10 16  0  0  0  10 16  0  0  0   155
MatLUFactorSym        85 1.0 1.4520e-04 1.0 0.00e+00 0.0 0.0e+00 0.0e+00 0.0e+00  0  0  0  0  0   0  0  0  0  0     0
MatLUFactorNum        85 1.0 6.5682e+00 1.0 3.79e+09 1.0 0.0e+00 0.0e+00 0.0e+00 12 68  0  0  0  12 68  0  0  0   576
MatAssemblyBegin      86 1.0 1.7595e-04 1.0 0.00e+00 0.0 0.0e+00 0.0e+00 0.0e+00  0  0  0  0  0   0  0  0  0  0     0
MatAssemblyEnd        86 1.0 1.1683e-04 1.0 0.00e+00 0.0 0.0e+00 0.0e+00 0.0e+00  0  0  0  0  0   0  0  0  0  0     0
Chebpolystuff     206760 1.0 3.0683e-01 1.0 0.00e+00 0.0 0.0e+00 0.0e+00 0.0e+00  1  0  0  0  0   1  0  0  0  0     0
PCSetUp               85 1.0 6.5793e+00 1.0 3.79e+09 1.0 0.0e+00 0.0e+00 0.0e+00 12 68  0  0  0  12 68  0  0  0   575
PCApply             2772 1.0 5.6694e+00 1.0 8.75e+08 1.0 0.0e+00 0.0e+00 0.0e+00 10 16  0  0  0  10 16  0  0  0   154
VecDot             24288 1.0 3.1133e+01 1.0 7.70e+05 1.0 0.0e+00 0.0e+00 0.0e+00 55  0  0  0  0  55  0  0  0  0     0
VecMDot             2604 1.0 5.2296e-02 1.0 2.99e+07 1.0 0.0e+00 0.0e+00 0.0e+00  0  1  0  0  0   0  1  0  0  0   572
VecNorm             2772 1.0 1.0387e-02 1.0 2.12e+06 1.0 0.0e+00 0.0e+00 0.0e+00  0  0  0  0  0   0  0  0  0  0   204
VecScale            2772 1.0 3.5605e+00 1.0 1.06e+06 1.0 0.0e+00 0.0e+00 0.0e+00  6  0  0  0  0   6  0  0  0  0     0
VecCopy              253 1.0 1.0355e-03 1.0 0.00e+00 0.0 0.0e+00 0.0e+00 0.0e+00  0  0  0  0  0   0  0  0  0  0     0
VecSet              9781 1.0 2.6625e-02 1.0 0.00e+00 0.0 0.0e+00 0.0e+00 0.0e+00  0  0  0  0  0   0  0  0  0  0     0
VecAXPY              251 1.0 3.2232e-01 1.0 1.93e+05 1.0 0.0e+00 0.0e+00 0.0e+00  1  0  0  0  0   1  0  0  0  0     1
VecMAXPY            2772 1.0 5.4623e-02 1.0 3.20e+07 1.0 0.0e+00 0.0e+00 0.0e+00  0  1  0  0  0   0  1  0  0  0   585
VecNormalize        2772 1.0 3.5874e+00 1.0 3.18e+06 1.0 0.0e+00 0.0e+00 0.0e+00  6  0  0  0  0   6  0  0  0  0     1
SRMG                   1 1.0 5.6166e+01 1.0 5.57e+09 1.0 0.0e+00 0.0e+00 0.0e+00100100  0  0  0 100100  0  0  0    99
InverseFourier      6072 1.0 3.1688e+01 1.0 7.70e+05 1.0 0.0e+00 0.0e+00 0.0e+00 56  0  0  0  0  56  0  0  0  0     0
FreeingPatches         1 1.0 1.9920e-03 1.0 0.00e+00 0.0 0.0e+00 0.0e+00 0.0e+00  0  0  0  0  0   0  0  0  0  0     0
------------------------------------------------------------------------------------------------------------------------

Memory usage is given in bytes:

Object Type          Creations   Destructions     Memory  Descendants' Mem.
Reports information only for process 0.

--- Event Stage 0: Main Stage

       Krylov Solver     1              1      1451104     0.
              Matrix   171            171    213750792     0.
      Preconditioner     1              1          992     0.
              Vector  9528           3456     14868472     0.
           Index Set   170            170       131920     0.
              Viewer     1              0            0     0.
========================================================================================================================
Average time to get PetscTime(): 2.38419e-08
#PETSc Option Table entries:
-L 3
-N 10
-buffer .3
-history logfourierN_10_L_1_buffer_.3.txt
-log_view
#End of PETSc Option Table entries
Compiled without FORTRAN kernels
Compiled with full precision matrices (default)
sizeof(short) 2 sizeof(int) 4 sizeof(long) 8 sizeof(void*) 8 sizeof(PetscScalar) 8 sizeof(PetscInt) 4
Configure options: --download-mpich --download-f2cblaslapack=1 --download-fftw
-----------------------------------------
Libraries compiled on Fri Aug 25 22:20:03 2017 on jrt54-Blade 
Machine characteristics: Linux-4.10.0-32-generic-x86_64-with-Ubuntu-16.04-xenial
Using PETSc directory: /home/jrt54/petsc
Using PETSc arch: linux-gnu-c-debug
-----------------------------------------

Using C compiler: /home/jrt54/petsc/linux-gnu-c-debug/bin/mpicc    -Wall -Wwrite-strings -Wno-strict-aliasing -Wno-unknown-pragmas -fvisibility=hidden -g3  ${COPTFLAGS} ${CFLAGS}
-----------------------------------------

Using include paths: -I/home/jrt54/petsc/linux-gnu-c-debug/include -I/home/jrt54/petsc/include -I/home/jrt54/petsc/include -I/home/jrt54/petsc/linux-gnu-c-debug/include
-----------------------------------------

Using C linker: /home/jrt54/petsc/linux-gnu-c-debug/bin/mpicc
Using libraries: -Wl,-rpath,/home/jrt54/petsc/linux-gnu-c-debug/lib -L/home/jrt54/petsc/linux-gnu-c-debug/lib -lpetsc -Wl,-rpath,/home/jrt54/petsc/linux-gnu-c-debug/lib -L/home/jrt54/petsc/linux-gnu-c-debug/lib -Wl,-rpath,/usr/lib/gcc/x86_64-linux-gnu/5 -L/usr/lib/gcc/x86_64-linux-gnu/5 -Wl,-rpath,/usr/lib/x86_64-linux-gnu -L/usr/lib/x86_64-linux-gnu -Wl,-rpath,/lib/x86_64-linux-gnu -L/lib/x86_64-linux-gnu -lfftw3_mpi -lfftw3 -lf2clapack -lf2cblas -lm -lpthread -lm -lmpicxx -lstdc++ -lm -ldl -lmpi -lgcc_s -ldl
-----------------------------------------

---------------------------------------------------------
Finished at Mon Sep 25 01:30:06 2017
---------------------------------------------------------
