---------------------------------------------------------
Petsc Release Version 3.7.6, unknown  Thu Sep 21 02:27:09 2017
./SRMGfourier on a linux-gn, 1 proc. with options:
---------------------------------------------------------
************************************************************************************************************************
***             WIDEN YOUR WINDOW TO 120 CHARACTERS.  Use 'enscript -r -fCourier9' to print this document            ***
************************************************************************************************************************

---------------------------------------------- PETSc Performance Summary: ----------------------------------------------

./SRMGfourier on a linux-gnu-c-debug named jrt54-Blade with 1 processor, by jrt54 Thu Sep 21 02:27:16 2017
Using Petsc Release Version 3.7.6, unknown 

                         Max       Max/Min        Avg      Total 
Time (sec):           6.988e+00      1.00000   6.988e+00
Objects:              3.074e+03      1.00000   3.074e+03
Flops:                2.227e+09      1.00000   2.227e+09  2.227e+09
Flops/sec:            3.187e+08      1.00000   3.187e+08  3.187e+08
Memory:               1.073e+07      1.00000              1.073e+07
MPI Messages:         0.000e+00      0.00000   0.000e+00  0.000e+00
MPI Message Lengths:  0.000e+00      0.00000   0.000e+00  0.000e+00
MPI Reductions:       0.000e+00      0.00000

Flop counting convention: 1 flop = 1 real number operation of type (multiply/divide/add/subtract)
                            e.g., VecAXPY() for real vectors of length N --> 2N flops
                            and VecAXPY() for complex vectors of length N --> 8N flops

Summary of Stages:   ----- Time ------  ----- Flops -----  --- Messages ---  -- Message Lengths --  -- Reductions --
                        Avg     %Total     Avg     %Total   counts   %Total     Avg         %Total   counts   %Total 
 0:      Main Stage: 6.9878e+00 100.0%  2.2267e+09 100.0%  0.000e+00   0.0%  0.000e+00        0.0%  0.000e+00   0.0% 

------------------------------------------------------------------------------------------------------------------------
See the 'Profiling' chapter of the users' manual for details on interpreting output.
Phase summary info:
   Count: number of times phase was executed
   Time and Flops: Max - maximum over all processors
                   Ratio - ratio of maximum to minimum over all processors
   Mess: number of messages sent
   Avg. len: average message length (bytes)
   Reduct: number of global reductions
   Global: entire computation
   Stage: stages of a computation. Set stages with PetscLogStagePush() and PetscLogStagePop().
      %T - percent time in this phase         %F - percent flops in this phase
      %M - percent messages in this phase     %L - percent message lengths in this phase
      %R - percent reductions in this phase
   Total Mflop/s: 10e-6 * (sum of flops over all processors)/(max time over all processors)
------------------------------------------------------------------------------------------------------------------------


      ##########################################################
      #                                                        #
      #                          WARNING!!!                    #
      #                                                        #
      #   This code was compiled with a debugging option,      #
      #   To get timing results run ./configure                #
      #   using --with-debugging=no, the performance will      #
      #   be generally two or three times faster.              #
      #                                                        #
      ##########################################################


Event                Count      Time (sec)     Flops                             --- Global ---  --- Stage ---   Total
                   Max Ratio  Max     Ratio   Max  Ratio  Mess   Avg len Reduct  %T %F %M %L %R  %T %F %M %L %R Mflop/s
------------------------------------------------------------------------------------------------------------------------

--- Event Stage 0: Main Stage

coarsesolve            1 1.0 2.7939e-01 1.0 1.07e+08 1.0 0.0e+00 0.0e+00 0.0e+00  4  5  0  0  0   4  5  0  0  0   383
KSPGMRESOrthog       631 1.0 3.1706e-02 1.0 1.82e+07 1.0 0.0e+00 0.0e+00 0.0e+00  0  1  0  0  0   0  1  0  0  0   573
KSPSetUp              21 1.0 1.9140e-03 1.0 0.00e+00 0.0 0.0e+00 0.0e+00 0.0e+00  0  0  0  0  0   0  0  0  0  0     0
KSPSolve              21 1.0 3.9715e+00 1.0 2.23e+09 1.0 0.0e+00 0.0e+00 0.0e+00 57100  0  0  0  57100  0  0  0   561
MatMult              651 1.0 4.8063e-01 1.0 3.05e+08 1.0 0.0e+00 0.0e+00 0.0e+00  7 14  0  0  0   7 14  0  0  0   634
MatSolve             672 1.0 7.8322e-01 1.0 3.15e+08 1.0 0.0e+00 0.0e+00 0.0e+00 11 14  0  0  0  11 14  0  0  0   402
MatLUFactorSym        21 1.0 5.6744e-05 1.0 0.00e+00 0.0 0.0e+00 0.0e+00 0.0e+00  0  0  0  0  0   0  0  0  0  0     0
MatLUFactorNum        21 1.0 2.5306e+00 1.0 1.59e+09 1.0 0.0e+00 0.0e+00 0.0e+00 36 71  0  0  0  36 71  0  0  0   627
MatAssemblyBegin      22 1.0 3.7193e-05 1.0 0.00e+00 0.0 0.0e+00 0.0e+00 0.0e+00  0  0  0  0  0   0  0  0  0  0     0
MatAssemblyEnd        22 1.0 3.0994e-05 1.0 0.00e+00 0.0 0.0e+00 0.0e+00 0.0e+00  0  0  0  0  0   0  0  0  0  0     0
Chebpolystuff      68176 1.0 9.6381e-02 1.0 0.00e+00 0.0 0.0e+00 0.0e+00 0.0e+00  1  0  0  0  0   1  0  0  0  0     0
PCSetUp               21 1.0 2.5334e+00 1.0 1.59e+09 1.0 0.0e+00 0.0e+00 0.0e+00 36 71  0  0  0  36 71  0  0  0   627
PCApply              672 1.0 7.8610e-01 1.0 3.15e+08 1.0 0.0e+00 0.0e+00 0.0e+00 11 14  0  0  0  11 14  0  0  0   400
VecDot              8576 1.0 1.7031e+00 1.0 4.03e+05 1.0 0.0e+00 0.0e+00 0.0e+00 24  0  0  0  0  24  0  0  0  0     0
VecMDot              631 1.0 1.1870e-02 1.0 9.08e+06 1.0 0.0e+00 0.0e+00 0.0e+00  0  0  0  0  0   0  0  0  0  0   765
VecNorm              672 1.0 2.3260e-03 1.0 6.50e+05 1.0 0.0e+00 0.0e+00 0.0e+00  0  0  0  0  0   0  0  0  0  0   279
VecScale             672 1.0 9.5447e-02 1.0 3.25e+05 1.0 0.0e+00 0.0e+00 0.0e+00  1  0  0  0  0   1  0  0  0  0     3
VecCopy               62 1.0 2.6178e-04 1.0 0.00e+00 0.0 0.0e+00 0.0e+00 0.0e+00  0  0  0  0  0   0  0  0  0  0     0
VecSet              3048 1.0 7.5223e-03 1.0 0.00e+00 0.0 0.0e+00 0.0e+00 0.0e+00  0  0  0  0  0   0  0  0  0  0     0
VecAXPY               61 1.0 8.3756e-03 1.0 5.90e+04 1.0 0.0e+00 0.0e+00 0.0e+00  0  0  0  0  0   0  0  0  0  0     7
VecMAXPY             672 1.0 1.3137e-02 1.0 9.70e+06 1.0 0.0e+00 0.0e+00 0.0e+00  0  0  0  0  0   0  0  0  0  0   738
VecNormalize         672 1.0 1.0127e-01 1.0 9.75e+05 1.0 0.0e+00 0.0e+00 0.0e+00  1  0  0  0  0   1  0  0  0  0    10
SRMG                   1 1.0 5.4965e+00 1.0 2.12e+09 1.0 0.0e+00 0.0e+00 0.0e+00 79 95  0  0  0  79 95  0  0  0   386
InverseFourier      2144 1.0 1.8796e+00 1.0 4.03e+05 1.0 0.0e+00 0.0e+00 0.0e+00 27  0  0  0  0  27  0  0  0  0     0
FreeingPatches         1 1.0 4.4894e-04 1.0 0.00e+00 0.0 0.0e+00 0.0e+00 0.0e+00  0  0  0  0  0   0  0  0  0  0     0
------------------------------------------------------------------------------------------------------------------------

Memory usage is given in bytes:

Object Type          Creations   Destructions     Memory  Descendants' Mem.
Reports information only for process 0.

--- Event Stage 0: Main Stage

       Krylov Solver     1              1       359520     0.
              Matrix    43             43     80744776     0.
      Preconditioner     1              1          992     0.
              Vector  2986            842      4237680     0.
           Index Set    42             42        32592     0.
              Viewer     1              0            0     0.
========================================================================================================================
Average time to get PetscTime(): 2.38419e-08
#PETSc Option Table entries:
-L 2
-N 24
-history logfourierN_24_L_2.txt
-log_view
#End of PETSc Option Table entries
Compiled without FORTRAN kernels
Compiled with full precision matrices (default)
sizeof(short) 2 sizeof(int) 4 sizeof(long) 8 sizeof(void*) 8 sizeof(PetscScalar) 8 sizeof(PetscInt) 4
Configure options: --download-mpich --download-f2cblaslapack=1 --download-fftw
-----------------------------------------
Libraries compiled on Fri Aug 25 22:20:03 2017 on jrt54-Blade 
Machine characteristics: Linux-4.10.0-32-generic-x86_64-with-Ubuntu-16.04-xenial
Using PETSc directory: /home/jrt54/petsc
Using PETSc arch: linux-gnu-c-debug
-----------------------------------------

Using C compiler: /home/jrt54/petsc/linux-gnu-c-debug/bin/mpicc    -Wall -Wwrite-strings -Wno-strict-aliasing -Wno-unknown-pragmas -fvisibility=hidden -g3  ${COPTFLAGS} ${CFLAGS}
-----------------------------------------

Using include paths: -I/home/jrt54/petsc/linux-gnu-c-debug/include -I/home/jrt54/petsc/include -I/home/jrt54/petsc/include -I/home/jrt54/petsc/linux-gnu-c-debug/include
-----------------------------------------

Using C linker: /home/jrt54/petsc/linux-gnu-c-debug/bin/mpicc
Using libraries: -Wl,-rpath,/home/jrt54/petsc/linux-gnu-c-debug/lib -L/home/jrt54/petsc/linux-gnu-c-debug/lib -lpetsc -Wl,-rpath,/home/jrt54/petsc/linux-gnu-c-debug/lib -L/home/jrt54/petsc/linux-gnu-c-debug/lib -Wl,-rpath,/usr/lib/gcc/x86_64-linux-gnu/5 -L/usr/lib/gcc/x86_64-linux-gnu/5 -Wl,-rpath,/usr/lib/x86_64-linux-gnu -L/usr/lib/x86_64-linux-gnu -Wl,-rpath,/lib/x86_64-linux-gnu -L/lib/x86_64-linux-gnu -lfftw3_mpi -lfftw3 -lf2clapack -lf2cblas -lm -lpthread -lm -lmpicxx -lstdc++ -lm -ldl -lmpi -lgcc_s -ldl
-----------------------------------------

---------------------------------------------------------
Finished at Thu Sep 21 02:27:16 2017
---------------------------------------------------------
