---------------------------------------------------------
Petsc Release Version 3.7.6, unknown  Mon Sep 25 01:07:03 2017
./SRMGfourier on a linux-gn, 1 proc. with options:
---------------------------------------------------------
************************************************************************************************************************
***             WIDEN YOUR WINDOW TO 120 CHARACTERS.  Use 'enscript -r -fCourier9' to print this document            ***
************************************************************************************************************************

---------------------------------------------- PETSc Performance Summary: ----------------------------------------------

./SRMGfourier on a linux-gnu-c-debug named jrt54-Blade with 1 processor, by jrt54 Mon Sep 25 01:07:20 2017
Using Petsc Release Version 3.7.6, unknown 

                         Max       Max/Min        Avg      Total 
Time (sec):           1.779e+01      1.00000   1.779e+01
Objects:              7.863e+03      1.00000   7.863e+03
Flops:                5.203e+08      1.00000   5.203e+08  5.203e+08
Flops/sec:            2.925e+07      1.00000   2.925e+07  2.925e+07
Memory:               9.510e+06      1.00000              9.510e+06
MPI Messages:         0.000e+00      0.00000   0.000e+00  0.000e+00
MPI Message Lengths:  0.000e+00      0.00000   0.000e+00  0.000e+00
MPI Reductions:       0.000e+00      0.00000

Flop counting convention: 1 flop = 1 real number operation of type (multiply/divide/add/subtract)
                            e.g., VecAXPY() for real vectors of length N --> 2N flops
                            and VecAXPY() for complex vectors of length N --> 8N flops

Summary of Stages:   ----- Time ------  ----- Flops -----  --- Messages ---  -- Message Lengths --  -- Reductions --
                        Avg     %Total     Avg     %Total   counts   %Total     Avg         %Total   counts   %Total 
 0:      Main Stage: 1.7790e+01 100.0%  5.2029e+08 100.0%  0.000e+00   0.0%  0.000e+00        0.0%  0.000e+00   0.0% 

------------------------------------------------------------------------------------------------------------------------
See the 'Profiling' chapter of the users' manual for details on interpreting output.
Phase summary info:
   Count: number of times phase was executed
   Time and Flops: Max - maximum over all processors
                   Ratio - ratio of maximum to minimum over all processors
   Mess: number of messages sent
   Avg. len: average message length (bytes)
   Reduct: number of global reductions
   Global: entire computation
   Stage: stages of a computation. Set stages with PetscLogStagePush() and PetscLogStagePop().
      %T - percent time in this phase         %F - percent flops in this phase
      %M - percent messages in this phase     %L - percent message lengths in this phase
      %R - percent reductions in this phase
   Total Mflop/s: 10e-6 * (sum of flops over all processors)/(max time over all processors)
------------------------------------------------------------------------------------------------------------------------


      ##########################################################
      #                                                        #
      #                          WARNING!!!                    #
      #                                                        #
      #   This code was compiled with a debugging option,      #
      #   To get timing results run ./configure                #
      #   using --with-debugging=no, the performance will      #
      #   be generally two or three times faster.              #
      #                                                        #
      ##########################################################


Event                Count      Time (sec)     Flops                             --- Global ---  --- Stage ---   Total
                   Max Ratio  Max     Ratio   Max  Ratio  Mess   Avg len Reduct  %T %F %M %L %R  %T %F %M %L %R Mflop/s
------------------------------------------------------------------------------------------------------------------------

--- Event Stage 0: Main Stage

coarsesolve            1 1.0 1.4178e-02 1.0 7.75e+05 1.0 0.0e+00 0.0e+00 0.0e+00  0  0  0  0  0   0  0  0  0  0    55
KSPGMRESOrthog      2591 1.0 1.0396e-01 1.0 2.40e+07 1.0 0.0e+00 0.0e+00 0.0e+00  1  5  0  0  0   1  5  0  0  0   231
KSPSetUp              85 1.0 6.7642e-03 1.0 0.00e+00 0.0 0.0e+00 0.0e+00 0.0e+00  0  0  0  0  0   0  0  0  0  0     0
KSPSolve              85 1.0 6.5540e+00 1.0 5.20e+08 1.0 0.0e+00 0.0e+00 0.0e+00 37100  0  0  0  37100  0  0  0    79
MatMult             2673 1.0 1.8705e+00 1.0 1.32e+08 1.0 0.0e+00 0.0e+00 0.0e+00 11 25  0  0  0  11 25  0  0  0    70
MatSolve            2758 1.0 2.0591e+00 1.0 1.36e+08 1.0 0.0e+00 0.0e+00 0.0e+00 12 26  0  0  0  12 26  0  0  0    66
MatLUFactorSym        85 1.0 1.2851e-04 1.0 0.00e+00 0.0 0.0e+00 0.0e+00 0.0e+00  0  0  0  0  0   0  0  0  0  0     0
MatLUFactorNum        85 1.0 4.4792e-01 1.0 2.26e+08 1.0 0.0e+00 0.0e+00 0.0e+00  3 44  0  0  0   3 44  0  0  0   506
MatAssemblyBegin      86 1.0 1.3781e-04 1.0 0.00e+00 0.0 0.0e+00 0.0e+00 0.0e+00  0  0  0  0  0   0  0  0  0  0     0
MatAssemblyEnd        86 1.0 1.2541e-04 1.0 0.00e+00 0.0 0.0e+00 0.0e+00 0.0e+00  0  0  0  0  0   0  0  0  0  0     0
Chebpolystuff      87368 1.0 1.1759e-01 1.0 0.00e+00 0.0 0.0e+00 0.0e+00 0.0e+00  1  0  0  0  0   1  0  0  0  0     0
PCSetUp               85 1.0 4.5663e-01 1.0 2.26e+08 1.0 0.0e+00 0.0e+00 0.0e+00  3 44  0  0  0   3 44  0  0  0   496
PCApply             2758 1.0 2.0717e+00 1.0 1.36e+08 1.0 0.0e+00 0.0e+00 0.0e+00 12 26  0  0  0  12 26  0  0  0    66
VecDot             16288 1.0 9.9618e+00 1.0 3.95e+05 1.0 0.0e+00 0.0e+00 0.0e+00 56  0  0  0  0  56  0  0  0  0     0
VecMDot             2591 1.0 3.8290e-02 1.0 1.20e+07 1.0 0.0e+00 0.0e+00 0.0e+00  0  2  0  0  0   0  2  0  0  0   312
VecNorm             2758 1.0 8.2901e-03 1.0 8.51e+05 1.0 0.0e+00 0.0e+00 0.0e+00  0  0  0  0  0   0  0  0  0  0   103
VecScale            2758 1.0 1.7508e+00 1.0 4.27e+05 1.0 0.0e+00 0.0e+00 0.0e+00 10  0  0  0  0  10  0  0  0  0     0
VecCopy              252 1.0 9.1124e-04 1.0 0.00e+00 0.0 0.0e+00 0.0e+00 0.0e+00  0  0  0  0  0   0  0  0  0  0     0
VecSet              7771 1.0 1.8528e-02 1.0 0.00e+00 0.0 0.0e+00 0.0e+00 0.0e+00  0  0  0  0  0   0  0  0  0  0     0
VecAXPY              249 1.0 1.5819e-01 1.0 7.74e+04 1.0 0.0e+00 0.0e+00 0.0e+00  1  0  0  0  0   1  0  0  0  0     0
VecMAXPY            2758 1.0 3.8094e-02 1.0 1.28e+07 1.0 0.0e+00 0.0e+00 0.0e+00  0  2  0  0  0   0  2  0  0  0   336
VecNormalize        2758 1.0 1.7734e+00 1.0 1.28e+06 1.0 0.0e+00 0.0e+00 0.0e+00 10  0  0  0  0  10  0  0  0  0     1
SRMG                   1 1.0 1.7773e+01 1.0 5.20e+08 1.0 0.0e+00 0.0e+00 0.0e+00100100  0  0  0 100100  0  0  0    29
InverseFourier      4072 1.0 1.0259e+01 1.0 3.95e+05 1.0 0.0e+00 0.0e+00 0.0e+00 58  0  0  0  0  58  0  0  0  0     0
FreeingPatches         1 1.0 1.9755e-03 1.0 0.00e+00 0.0 0.0e+00 0.0e+00 0.0e+00  0  0  0  0  0   0  0  0  0  0     0
------------------------------------------------------------------------------------------------------------------------

Memory usage is given in bytes:

Object Type          Creations   Destructions     Memory  Descendants' Mem.
Reports information only for process 0.

--- Event Stage 0: Main Stage

       Krylov Solver     1              1      1451104     0.
              Matrix   171            171     34042760     0.
      Preconditioner     1              1          992     0.
              Vector  7519           3447      9151480     0.
           Index Set   170            170       131920     0.
              Viewer     1              0            0     0.
========================================================================================================================
Average time to get PetscTime(): 4.76837e-08
#PETSc Option Table entries:
-L 3
-N 10
-buffer .1
-history logfourierN_10_L_1_buffer_.1.txt
-log_view
#End of PETSc Option Table entries
Compiled without FORTRAN kernels
Compiled with full precision matrices (default)
sizeof(short) 2 sizeof(int) 4 sizeof(long) 8 sizeof(void*) 8 sizeof(PetscScalar) 8 sizeof(PetscInt) 4
Configure options: --download-mpich --download-f2cblaslapack=1 --download-fftw
-----------------------------------------
Libraries compiled on Fri Aug 25 22:20:03 2017 on jrt54-Blade 
Machine characteristics: Linux-4.10.0-32-generic-x86_64-with-Ubuntu-16.04-xenial
Using PETSc directory: /home/jrt54/petsc
Using PETSc arch: linux-gnu-c-debug
-----------------------------------------

Using C compiler: /home/jrt54/petsc/linux-gnu-c-debug/bin/mpicc    -Wall -Wwrite-strings -Wno-strict-aliasing -Wno-unknown-pragmas -fvisibility=hidden -g3  ${COPTFLAGS} ${CFLAGS}
-----------------------------------------

Using include paths: -I/home/jrt54/petsc/linux-gnu-c-debug/include -I/home/jrt54/petsc/include -I/home/jrt54/petsc/include -I/home/jrt54/petsc/linux-gnu-c-debug/include
-----------------------------------------

Using C linker: /home/jrt54/petsc/linux-gnu-c-debug/bin/mpicc
Using libraries: -Wl,-rpath,/home/jrt54/petsc/linux-gnu-c-debug/lib -L/home/jrt54/petsc/linux-gnu-c-debug/lib -lpetsc -Wl,-rpath,/home/jrt54/petsc/linux-gnu-c-debug/lib -L/home/jrt54/petsc/linux-gnu-c-debug/lib -Wl,-rpath,/usr/lib/gcc/x86_64-linux-gnu/5 -L/usr/lib/gcc/x86_64-linux-gnu/5 -Wl,-rpath,/usr/lib/x86_64-linux-gnu -L/usr/lib/x86_64-linux-gnu -Wl,-rpath,/lib/x86_64-linux-gnu -L/lib/x86_64-linux-gnu -lfftw3_mpi -lfftw3 -lf2clapack -lf2cblas -lm -lpthread -lm -lmpicxx -lstdc++ -lm -ldl -lmpi -lgcc_s -ldl
-----------------------------------------

---------------------------------------------------------
Finished at Mon Sep 25 01:07:20 2017
---------------------------------------------------------
---------------------------------------------------------
Petsc Release Version 3.7.6, unknown  Mon Sep 25 01:28:22 2017
./SRMGfourier on a linux-gn, 1 proc. with options:
---------------------------------------------------------
************************************************************************************************************************
***             WIDEN YOUR WINDOW TO 120 CHARACTERS.  Use 'enscript -r -fCourier9' to print this document            ***
************************************************************************************************************************

---------------------------------------------- PETSc Performance Summary: ----------------------------------------------

./SRMGfourier on a linux-gnu-c-debug named jrt54-Blade with 1 processor, by jrt54 Mon Sep 25 01:28:41 2017
Using Petsc Release Version 3.7.6, unknown 

                         Max       Max/Min        Avg      Total 
Time (sec):           1.972e+01      1.00000   1.972e+01
Objects:              7.863e+03      1.00000   7.863e+03
Flops:                5.203e+08      1.00000   5.203e+08  5.203e+08
Flops/sec:            2.639e+07      1.00000   2.639e+07  2.639e+07
Memory:               9.510e+06      1.00000              9.510e+06
MPI Messages:         0.000e+00      0.00000   0.000e+00  0.000e+00
MPI Message Lengths:  0.000e+00      0.00000   0.000e+00  0.000e+00
MPI Reductions:       0.000e+00      0.00000

Flop counting convention: 1 flop = 1 real number operation of type (multiply/divide/add/subtract)
                            e.g., VecAXPY() for real vectors of length N --> 2N flops
                            and VecAXPY() for complex vectors of length N --> 8N flops

Summary of Stages:   ----- Time ------  ----- Flops -----  --- Messages ---  -- Message Lengths --  -- Reductions --
                        Avg     %Total     Avg     %Total   counts   %Total     Avg         %Total   counts   %Total 
 0:      Main Stage: 1.9715e+01 100.0%  5.2029e+08 100.0%  0.000e+00   0.0%  0.000e+00        0.0%  0.000e+00   0.0% 

------------------------------------------------------------------------------------------------------------------------
See the 'Profiling' chapter of the users' manual for details on interpreting output.
Phase summary info:
   Count: number of times phase was executed
   Time and Flops: Max - maximum over all processors
                   Ratio - ratio of maximum to minimum over all processors
   Mess: number of messages sent
   Avg. len: average message length (bytes)
   Reduct: number of global reductions
   Global: entire computation
   Stage: stages of a computation. Set stages with PetscLogStagePush() and PetscLogStagePop().
      %T - percent time in this phase         %F - percent flops in this phase
      %M - percent messages in this phase     %L - percent message lengths in this phase
      %R - percent reductions in this phase
   Total Mflop/s: 10e-6 * (sum of flops over all processors)/(max time over all processors)
------------------------------------------------------------------------------------------------------------------------


      ##########################################################
      #                                                        #
      #                          WARNING!!!                    #
      #                                                        #
      #   This code was compiled with a debugging option,      #
      #   To get timing results run ./configure                #
      #   using --with-debugging=no, the performance will      #
      #   be generally two or three times faster.              #
      #                                                        #
      ##########################################################


Event                Count      Time (sec)     Flops                             --- Global ---  --- Stage ---   Total
                   Max Ratio  Max     Ratio   Max  Ratio  Mess   Avg len Reduct  %T %F %M %L %R  %T %F %M %L %R Mflop/s
------------------------------------------------------------------------------------------------------------------------

--- Event Stage 0: Main Stage

coarsesolve            1 1.0 1.5412e-02 1.0 7.75e+05 1.0 0.0e+00 0.0e+00 0.0e+00  0  0  0  0  0   0  0  0  0  0    50
KSPGMRESOrthog      2591 1.0 1.0934e-01 1.0 2.40e+07 1.0 0.0e+00 0.0e+00 0.0e+00  1  5  0  0  0   1  5  0  0  0   219
KSPSetUp              85 1.0 7.3283e-03 1.0 0.00e+00 0.0 0.0e+00 0.0e+00 0.0e+00  0  0  0  0  0   0  0  0  0  0     0
KSPSolve              85 1.0 7.2479e+00 1.0 5.20e+08 1.0 0.0e+00 0.0e+00 0.0e+00 37100  0  0  0  37100  0  0  0    72
MatMult             2673 1.0 2.0740e+00 1.0 1.32e+08 1.0 0.0e+00 0.0e+00 0.0e+00 11 25  0  0  0  11 25  0  0  0    63
MatSolve            2758 1.0 2.2859e+00 1.0 1.36e+08 1.0 0.0e+00 0.0e+00 0.0e+00 12 26  0  0  0  12 26  0  0  0    59
MatLUFactorSym        85 1.0 1.2064e-04 1.0 0.00e+00 0.0 0.0e+00 0.0e+00 0.0e+00  0  0  0  0  0   0  0  0  0  0     0
MatLUFactorNum        85 1.0 4.9277e-01 1.0 2.26e+08 1.0 0.0e+00 0.0e+00 0.0e+00  2 44  0  0  0   2 44  0  0  0   460
MatAssemblyBegin      86 1.0 1.3447e-04 1.0 0.00e+00 0.0 0.0e+00 0.0e+00 0.0e+00  0  0  0  0  0   0  0  0  0  0     0
MatAssemblyEnd        86 1.0 1.1134e-04 1.0 0.00e+00 0.0 0.0e+00 0.0e+00 0.0e+00  0  0  0  0  0   0  0  0  0  0     0
Chebpolystuff      87368 1.0 1.2245e-01 1.0 0.00e+00 0.0 0.0e+00 0.0e+00 0.0e+00  1  0  0  0  0   1  0  0  0  0     0
PCSetUp               85 1.0 5.0193e-01 1.0 2.26e+08 1.0 0.0e+00 0.0e+00 0.0e+00  3 44  0  0  0   3 44  0  0  0   451
PCApply             2758 1.0 2.2990e+00 1.0 1.36e+08 1.0 0.0e+00 0.0e+00 0.0e+00 12 26  0  0  0  12 26  0  0  0    59
VecDot             16288 1.0 1.1104e+01 1.0 3.95e+05 1.0 0.0e+00 0.0e+00 0.0e+00 56  0  0  0  0  56  0  0  0  0     0
VecMDot             2591 1.0 4.0653e-02 1.0 1.20e+07 1.0 0.0e+00 0.0e+00 0.0e+00  0  2  0  0  0   0  2  0  0  0   294
VecNorm             2758 1.0 8.6477e-03 1.0 8.51e+05 1.0 0.0e+00 0.0e+00 0.0e+00  0  0  0  0  0   0  0  0  0  0    98
VecScale            2758 1.0 1.9396e+00 1.0 4.27e+05 1.0 0.0e+00 0.0e+00 0.0e+00 10  0  0  0  0  10  0  0  0  0     0
VecCopy              252 1.0 9.1624e-04 1.0 0.00e+00 0.0 0.0e+00 0.0e+00 0.0e+00  0  0  0  0  0   0  0  0  0  0     0
VecSet              7771 1.0 1.9184e-02 1.0 0.00e+00 0.0 0.0e+00 0.0e+00 0.0e+00  0  0  0  0  0   0  0  0  0  0     0
VecAXPY              249 1.0 1.7437e-01 1.0 7.74e+04 1.0 0.0e+00 0.0e+00 0.0e+00  1  0  0  0  0   1  0  0  0  0     0
VecMAXPY            2758 1.0 3.9479e-02 1.0 1.28e+07 1.0 0.0e+00 0.0e+00 0.0e+00  0  2  0  0  0   0  2  0  0  0   324
VecNormalize        2758 1.0 1.9635e+00 1.0 1.28e+06 1.0 0.0e+00 0.0e+00 0.0e+00 10  0  0  0  0  10  0  0  0  0     1
SRMG                   1 1.0 1.9697e+01 1.0 5.20e+08 1.0 0.0e+00 0.0e+00 0.0e+00100100  0  0  0 100100  0  0  0    26
InverseFourier      4072 1.0 1.1413e+01 1.0 3.95e+05 1.0 0.0e+00 0.0e+00 0.0e+00 58  0  0  0  0  58  0  0  0  0     0
FreeingPatches         1 1.0 2.0199e-03 1.0 0.00e+00 0.0 0.0e+00 0.0e+00 0.0e+00  0  0  0  0  0   0  0  0  0  0     0
------------------------------------------------------------------------------------------------------------------------

Memory usage is given in bytes:

Object Type          Creations   Destructions     Memory  Descendants' Mem.
Reports information only for process 0.

--- Event Stage 0: Main Stage

       Krylov Solver     1              1      1451104     0.
              Matrix   171            171     34042760     0.
      Preconditioner     1              1          992     0.
              Vector  7519           3447      9151480     0.
           Index Set   170            170       131920     0.
              Viewer     1              0            0     0.
========================================================================================================================
Average time to get PetscTime(): 2.38419e-08
#PETSc Option Table entries:
-L 3
-N 10
-buffer .1
-history logfourierN_10_L_1_buffer_.1.txt
-log_view
#End of PETSc Option Table entries
Compiled without FORTRAN kernels
Compiled with full precision matrices (default)
sizeof(short) 2 sizeof(int) 4 sizeof(long) 8 sizeof(void*) 8 sizeof(PetscScalar) 8 sizeof(PetscInt) 4
Configure options: --download-mpich --download-f2cblaslapack=1 --download-fftw
-----------------------------------------
Libraries compiled on Fri Aug 25 22:20:03 2017 on jrt54-Blade 
Machine characteristics: Linux-4.10.0-32-generic-x86_64-with-Ubuntu-16.04-xenial
Using PETSc directory: /home/jrt54/petsc
Using PETSc arch: linux-gnu-c-debug
-----------------------------------------

Using C compiler: /home/jrt54/petsc/linux-gnu-c-debug/bin/mpicc    -Wall -Wwrite-strings -Wno-strict-aliasing -Wno-unknown-pragmas -fvisibility=hidden -g3  ${COPTFLAGS} ${CFLAGS}
-----------------------------------------

Using include paths: -I/home/jrt54/petsc/linux-gnu-c-debug/include -I/home/jrt54/petsc/include -I/home/jrt54/petsc/include -I/home/jrt54/petsc/linux-gnu-c-debug/include
-----------------------------------------

Using C linker: /home/jrt54/petsc/linux-gnu-c-debug/bin/mpicc
Using libraries: -Wl,-rpath,/home/jrt54/petsc/linux-gnu-c-debug/lib -L/home/jrt54/petsc/linux-gnu-c-debug/lib -lpetsc -Wl,-rpath,/home/jrt54/petsc/linux-gnu-c-debug/lib -L/home/jrt54/petsc/linux-gnu-c-debug/lib -Wl,-rpath,/usr/lib/gcc/x86_64-linux-gnu/5 -L/usr/lib/gcc/x86_64-linux-gnu/5 -Wl,-rpath,/usr/lib/x86_64-linux-gnu -L/usr/lib/x86_64-linux-gnu -Wl,-rpath,/lib/x86_64-linux-gnu -L/lib/x86_64-linux-gnu -lfftw3_mpi -lfftw3 -lf2clapack -lf2cblas -lm -lpthread -lm -lmpicxx -lstdc++ -lm -ldl -lmpi -lgcc_s -ldl
-----------------------------------------

---------------------------------------------------------
Finished at Mon Sep 25 01:28:41 2017
---------------------------------------------------------
