This is BibTeX, Version 0.99d (TeX Live 2015)
Capacity: max_strings=35307, hash_size=35307, hash_prime=30011
The top-level auxiliary file: main.aux
The style file: IEEEtran.bst
Reallocated singl_function (elt_size=4) to 100 items from 50.
Reallocated singl_function (elt_size=4) to 100 items from 50.
Reallocated singl_function (elt_size=4) to 100 items from 50.
Reallocated wiz_functions (elt_size=4) to 6000 items from 3000.
Reallocated singl_function (elt_size=4) to 100 items from 50.
Database file #1: references.bib
-- IEEEtran.bst version 1.13 (2008/09/30) by Michael Shell.
-- http://www.michaelshell.org/tex/ieeetran/bibtex/
-- See the "IEEEtran_bst_HOWTO.pdf" manual for usage information.
Name 1 in "Mark F. Adams, Jed Brown, Matt Knepley, and Ravi Samtaney" has a comma at the end for entry paper1
while executing---line 2419 of file IEEEtran.bst
Warning--empty journal in paper1
Warning--empty year in paper1

Done.
You've used 4 entries,
            4039 wiz_defined-function locations,
            832 strings with 7820 characters,
and the built_in function-call counts, 2333 in all, are:
= -- 168
> -- 57
< -- 14
+ -- 28
- -- 11
* -- 122
:= -- 371
add.period$ -- 8
call.type$ -- 4
change.case$ -- 2
chr.to.int$ -- 27
cite$ -- 6
duplicate$ -- 169
empty$ -- 203
format.name$ -- 15
if$ -- 514
int.to.chr$ -- 0
int.to.str$ -- 4
missing$ -- 32
newline$ -- 35
num.names$ -- 4
pop$ -- 85
preamble$ -- 1
purify$ -- 0
quote$ -- 2
skip$ -- 179
stack$ -- 0
substring$ -- 65
swap$ -- 124
text.length$ -- 5
text.prefix$ -- 0
top$ -- 5
type$ -- 4
warning$ -- 2
while$ -- 7
width$ -- 5
write$ -- 55
(There was 1 error message)
