---------------------------------------------------------
Petsc Release Version 3.7.6, unknown  Wed Oct 11 00:59:11 2017
./SRMGtree on a linux-gn, 1 proc. with options:
---------------------------------------------------------
************************************************************************************************************************
***             WIDEN YOUR WINDOW TO 120 CHARACTERS.  Use 'enscript -r -fCourier9' to print this document            ***
************************************************************************************************************************

---------------------------------------------- PETSc Performance Summary: ----------------------------------------------

./SRMGtree on a linux-gnu-c-debug named jrt54-Blade with 1 processor, by jrt54 Wed Oct 11 00:59:11 2017
Using Petsc Release Version 3.7.6, unknown 

                         Max       Max/Min        Avg      Total 
Time (sec):           4.292e-01      1.00000   4.292e-01
Objects:              8.650e+02      1.00000   8.650e+02
Flops:                5.667e+06      1.00000   5.667e+06  5.667e+06
Flops/sec:            1.320e+07      1.00000   1.320e+07  1.320e+07
Memory:               2.585e+05      1.00000              2.585e+05
MPI Messages:         0.000e+00      0.00000   0.000e+00  0.000e+00
MPI Message Lengths:  0.000e+00      0.00000   0.000e+00  0.000e+00
MPI Reductions:       0.000e+00      0.00000

Flop counting convention: 1 flop = 1 real number operation of type (multiply/divide/add/subtract)
                            e.g., VecAXPY() for real vectors of length N --> 2N flops
                            and VecAXPY() for complex vectors of length N --> 8N flops

Summary of Stages:   ----- Time ------  ----- Flops -----  --- Messages ---  -- Message Lengths --  -- Reductions --
                        Avg     %Total     Avg     %Total   counts   %Total     Avg         %Total   counts   %Total 
 0:      Main Stage: 4.2924e-01 100.0%  5.6671e+06 100.0%  0.000e+00   0.0%  0.000e+00        0.0%  0.000e+00   0.0% 

------------------------------------------------------------------------------------------------------------------------
See the 'Profiling' chapter of the users' manual for details on interpreting output.
Phase summary info:
   Count: number of times phase was executed
   Time and Flops: Max - maximum over all processors
                   Ratio - ratio of maximum to minimum over all processors
   Mess: number of messages sent
   Avg. len: average message length (bytes)
   Reduct: number of global reductions
   Global: entire computation
   Stage: stages of a computation. Set stages with PetscLogStagePush() and PetscLogStagePop().
      %T - percent time in this phase         %F - percent flops in this phase
      %M - percent messages in this phase     %L - percent message lengths in this phase
      %R - percent reductions in this phase
   Total Mflop/s: 10e-6 * (sum of flops over all processors)/(max time over all processors)
------------------------------------------------------------------------------------------------------------------------


      ##########################################################
      #                                                        #
      #                          WARNING!!!                    #
      #                                                        #
      #   This code was compiled with a debugging option,      #
      #   To get timing results run ./configure                #
      #   using --with-debugging=no, the performance will      #
      #   be generally two or three times faster.              #
      #                                                        #
      ##########################################################


Event                Count      Time (sec)     Flops                             --- Global ---  --- Stage ---   Total
                   Max Ratio  Max     Ratio   Max  Ratio  Mess   Avg len Reduct  %T %F %M %L %R  %T %F %M %L %R Mflop/s
------------------------------------------------------------------------------------------------------------------------

--- Event Stage 0: Main Stage

coarsesolve            1 1.0 1.6559e-02 1.0 2.70e+05 1.0 0.0e+00 0.0e+00 0.0e+00  4  5  0  0  0   4  5  0  0  0    16
KSPGMRESOrthog       651 1.0 2.9931e-02 1.0 1.40e+06 1.0 0.0e+00 0.0e+00 0.0e+00  7 25  0  0  0   7 25  0  0  0    47
KSPSetUp              21 1.0 2.6464e-03 1.0 0.00e+00 0.0 0.0e+00 0.0e+00 0.0e+00  1  0  0  0  0   1  0  0  0  0     0
KSPSolve              21 1.0 1.3667e-01 1.0 5.67e+06 1.0 0.0e+00 0.0e+00 0.0e+00 32100  0  0  0  32100  0  0  0    41
MatMult              672 1.0 1.6732e-02 1.0 1.72e+06 1.0 0.0e+00 0.0e+00 0.0e+00  4 30  0  0  0   4 30  0  0  0   103
MatSolve             693 1.0 2.0970e-02 1.0 1.77e+06 1.0 0.0e+00 0.0e+00 0.0e+00  5 31  0  0  0   5 31  0  0  0    84
MatLUFactorSym        21 1.0 4.6253e-05 1.0 0.00e+00 0.0 0.0e+00 0.0e+00 0.0e+00  0  0  0  0  0   0  0  0  0  0     0
MatLUFactorNum        21 1.0 4.6539e-03 1.0 6.53e+05 1.0 0.0e+00 0.0e+00 0.0e+00  1 12  0  0  0   1 12  0  0  0   140
MatAssemblyBegin      22 1.0 4.9114e-05 1.0 0.00e+00 0.0 0.0e+00 0.0e+00 0.0e+00  0  0  0  0  0   0  0  0  0  0     0
MatAssemblyEnd        22 1.0 5.1022e-05 1.0 0.00e+00 0.0 0.0e+00 0.0e+00 0.0e+00  0  0  0  0  0   0  0  0  0  0     0
Chebpolystuff      17712 1.0 3.4073e-02 1.0 0.00e+00 0.0 0.0e+00 0.0e+00 0.0e+00  8  0  0  0  0   8  0  0  0  0     0
PCSetUp               21 1.0 7.6876e-03 1.0 6.53e+05 1.0 0.0e+00 0.0e+00 0.0e+00  2 12  0  0  0   2 12  0  0  0    85
PCApply              693 1.0 2.4814e-02 1.0 1.77e+06 1.0 0.0e+00 0.0e+00 0.0e+00  6 31  0  0  0   6 31  0  0  0    71
VecMDot              651 1.0 1.0426e-02 1.0 6.95e+05 1.0 0.0e+00 0.0e+00 0.0e+00  2 12  0  0  0   2 12  0  0  0    67
VecNorm              693 1.0 2.4145e-03 1.0 4.92e+04 1.0 0.0e+00 0.0e+00 0.0e+00  1  1  0  0  0   1  1  0  0  0    20
VecScale             693 1.0 1.1616e-02 1.0 2.49e+04 1.0 0.0e+00 0.0e+00 0.0e+00  3  0  0  0  0   3  0  0  0  0     2
VecCopy               63 1.0 2.9612e-04 1.0 0.00e+00 0.0 0.0e+00 0.0e+00 0.0e+00  0  0  0  0  0   0  0  0  0  0     0
VecSet               840 1.0 2.9862e-03 1.0 0.00e+00 0.0 0.0e+00 0.0e+00 0.0e+00  1  0  0  0  0   1  0  0  0  0     0
VecAXPY               63 1.0 1.1563e-03 1.0 4.54e+03 1.0 0.0e+00 0.0e+00 0.0e+00  0  0  0  0  0   0  0  0  0  0     4
VecMAXPY             693 1.0 1.1539e-02 1.0 7.51e+05 1.0 0.0e+00 0.0e+00 0.0e+00  3 13  0  0  0   3 13  0  0  0    65
VecNormalize         693 1.0 1.8819e-02 1.0 7.42e+04 1.0 0.0e+00 0.0e+00 0.0e+00  4  1  0  0  0   4  1  0  0  0     4
Getting LaplaceBox     756 1.0 1.9896e-01 1.0 0.00e+00 0.0 0.0e+00 0.0e+00 0.0e+00 46  0  0  0  0  46  0  0  0  0     0
SRMG                   1 1.0 4.1184e-01 1.0 5.40e+06 1.0 0.0e+00 0.0e+00 0.0e+00 96 95  0  0  0  96 95  0  0  0    13
Recursive old LaplaceBox     720 1.0 1.0160e-01 1.0 0.00e+00 0.0 0.0e+00 0.0e+00 0.0e+00 24  0  0  0  0  24  0  0  0  0     0
FreeingPatches         1 1.0 1.5593e-04 1.0 0.00e+00 0.0 0.0e+00 0.0e+00 0.0e+00  0  0  0  0  0   0  0  0  0  0     0
------------------------------------------------------------------------------------------------------------------------

Memory usage is given in bytes:

Object Type          Creations   Destructions     Memory  Descendants' Mem.
Reports information only for process 0.

--- Event Stage 0: Main Stage

       Krylov Solver     1              1       359520     0.
              Matrix    43             43       568904     0.
      Preconditioner     1              1          992     0.
              Vector   777            777      1411032     0.
           Index Set    42             42        32592     0.
              Viewer     1              0            0     0.
========================================================================================================================
Average time to get PetscTime(): 2.38419e-08
#PETSc Option Table entries:
-L 2
-N 8
-buffer 0.0
-history logchebN_8_L_2_buffer_0.0.txt
-log_view
#End of PETSc Option Table entries
Compiled without FORTRAN kernels
Compiled with full precision matrices (default)
sizeof(short) 2 sizeof(int) 4 sizeof(long) 8 sizeof(void*) 8 sizeof(PetscScalar) 8 sizeof(PetscInt) 4
Configure options: --download-mpich --download-f2cblaslapack=1 --download-fftw
-----------------------------------------
Libraries compiled on Fri Aug 25 22:20:03 2017 on jrt54-Blade 
Machine characteristics: Linux-4.10.0-32-generic-x86_64-with-Ubuntu-16.04-xenial
Using PETSc directory: /home/jrt54/petsc
Using PETSc arch: linux-gnu-c-debug
-----------------------------------------

Using C compiler: /home/jrt54/petsc/linux-gnu-c-debug/bin/mpicc    -Wall -Wwrite-strings -Wno-strict-aliasing -Wno-unknown-pragmas -fvisibility=hidden -g3  ${COPTFLAGS} ${CFLAGS}
-----------------------------------------

Using include paths: -I/home/jrt54/petsc/linux-gnu-c-debug/include -I/home/jrt54/petsc/include -I/home/jrt54/petsc/include -I/home/jrt54/petsc/linux-gnu-c-debug/include
-----------------------------------------

Using C linker: /home/jrt54/petsc/linux-gnu-c-debug/bin/mpicc
Using libraries: -Wl,-rpath,/home/jrt54/petsc/linux-gnu-c-debug/lib -L/home/jrt54/petsc/linux-gnu-c-debug/lib -lpetsc -Wl,-rpath,/home/jrt54/petsc/linux-gnu-c-debug/lib -L/home/jrt54/petsc/linux-gnu-c-debug/lib -Wl,-rpath,/usr/lib/gcc/x86_64-linux-gnu/5 -L/usr/lib/gcc/x86_64-linux-gnu/5 -Wl,-rpath,/usr/lib/x86_64-linux-gnu -L/usr/lib/x86_64-linux-gnu -Wl,-rpath,/lib/x86_64-linux-gnu -L/lib/x86_64-linux-gnu -lfftw3_mpi -lfftw3 -lf2clapack -lf2cblas -lm -lpthread -lm -lmpicxx -lstdc++ -lm -ldl -lmpi -lgcc_s -ldl
-----------------------------------------

---------------------------------------------------------
Finished at Wed Oct 11 00:59:11 2017
---------------------------------------------------------
