---------------------------------------------------------
Petsc Release Version 3.7.6, unknown  Wed Oct 11 01:00:24 2017
./SRMGtree on a linux-gn, 1 proc. with options:
---------------------------------------------------------
************************************************************************************************************************
***             WIDEN YOUR WINDOW TO 120 CHARACTERS.  Use 'enscript -r -fCourier9' to print this document            ***
************************************************************************************************************************

---------------------------------------------- PETSc Performance Summary: ----------------------------------------------

./SRMGtree on a linux-gnu-c-debug named jrt54-Blade with 1 processor, by jrt54 Wed Oct 11 01:00:34 2017
Using Petsc Release Version 3.7.6, unknown 

                         Max       Max/Min        Avg      Total 
Time (sec):           9.880e+00      1.00000   9.880e+00
Objects:              2.090e+02      1.00000   2.090e+02
Flops:                2.479e+09      1.00000   2.479e+09  2.479e+09
Flops/sec:            2.509e+08      1.00000   2.509e+08  2.509e+08
Memory:               2.179e+07      1.00000              2.179e+07
MPI Messages:         0.000e+00      0.00000   0.000e+00  0.000e+00
MPI Message Lengths:  0.000e+00      0.00000   0.000e+00  0.000e+00
MPI Reductions:       0.000e+00      0.00000

Flop counting convention: 1 flop = 1 real number operation of type (multiply/divide/add/subtract)
                            e.g., VecAXPY() for real vectors of length N --> 2N flops
                            and VecAXPY() for complex vectors of length N --> 8N flops

Summary of Stages:   ----- Time ------  ----- Flops -----  --- Messages ---  -- Message Lengths --  -- Reductions --
                        Avg     %Total     Avg     %Total   counts   %Total     Avg         %Total   counts   %Total 
 0:      Main Stage: 9.8803e+00 100.0%  2.4793e+09 100.0%  0.000e+00   0.0%  0.000e+00        0.0%  0.000e+00   0.0% 

------------------------------------------------------------------------------------------------------------------------
See the 'Profiling' chapter of the users' manual for details on interpreting output.
Phase summary info:
   Count: number of times phase was executed
   Time and Flops: Max - maximum over all processors
                   Ratio - ratio of maximum to minimum over all processors
   Mess: number of messages sent
   Avg. len: average message length (bytes)
   Reduct: number of global reductions
   Global: entire computation
   Stage: stages of a computation. Set stages with PetscLogStagePush() and PetscLogStagePop().
      %T - percent time in this phase         %F - percent flops in this phase
      %M - percent messages in this phase     %L - percent message lengths in this phase
      %R - percent reductions in this phase
   Total Mflop/s: 10e-6 * (sum of flops over all processors)/(max time over all processors)
------------------------------------------------------------------------------------------------------------------------


      ##########################################################
      #                                                        #
      #                          WARNING!!!                    #
      #                                                        #
      #   This code was compiled with a debugging option,      #
      #   To get timing results run ./configure                #
      #   using --with-debugging=no, the performance will      #
      #   be generally two or three times faster.              #
      #                                                        #
      ##########################################################


Event                Count      Time (sec)     Flops                             --- Global ---  --- Stage ---   Total
                   Max Ratio  Max     Ratio   Max  Ratio  Mess   Avg len Reduct  %T %F %M %L %R  %T %F %M %L %R Mflop/s
------------------------------------------------------------------------------------------------------------------------

--- Event Stage 0: Main Stage

coarsesolve            1 1.0 5.5628e-01 1.0 1.07e+08 1.0 0.0e+00 0.0e+00 0.0e+00  6  4  0  0  0   6  4  0  0  0   192
KSPGMRESOrthog       155 1.0 1.5491e-02 1.0 7.61e+06 1.0 0.0e+00 0.0e+00 0.0e+00  0  0  0  0  0   0  0  0  0  0   491
KSPSetUp               5 1.0 7.4959e-04 1.0 0.00e+00 0.0 0.0e+00 0.0e+00 0.0e+00  0  0  0  0  0   0  0  0  0  0     0
KSPSolve               5 1.0 8.0720e+00 1.0 2.48e+09 1.0 0.0e+00 0.0e+00 0.0e+00 82100  0  0  0  82100  0  0  0   307
MatMult              160 1.0 5.6887e-01 1.0 2.22e+08 1.0 0.0e+00 0.0e+00 0.0e+00  6  9  0  0  0   6  9  0  0  0   391
MatSolve             165 1.0 9.5018e-01 1.0 2.29e+08 1.0 0.0e+00 0.0e+00 0.0e+00 10  9  0  0  0  10  9  0  0  0   241
MatLUFactorSym         5 1.0 1.1206e-05 1.0 0.00e+00 0.0 0.0e+00 0.0e+00 0.0e+00  0  0  0  0  0   0  0  0  0  0     0
MatLUFactorNum         5 1.0 6.5154e+00 1.0 2.02e+09 1.0 0.0e+00 0.0e+00 0.0e+00 66 81  0  0  0  66 81  0  0  0   310
MatAssemblyBegin       6 1.0 1.4544e-05 1.0 0.00e+00 0.0 0.0e+00 0.0e+00 0.0e+00  0  0  0  0  0   0  0  0  0  0     0
MatAssemblyEnd         6 1.0 1.3351e-05 1.0 0.00e+00 0.0 0.0e+00 0.0e+00 0.0e+00  0  0  0  0  0   0  0  0  0  0     0
Chebpolystuff      63408 1.0 1.3134e-01 1.0 0.00e+00 0.0 0.0e+00 0.0e+00 0.0e+00  1  0  0  0  0   1  0  0  0  0     0
PCSetUp                5 1.0 6.5165e+00 1.0 2.02e+09 1.0 0.0e+00 0.0e+00 0.0e+00 66 81  0  0  0  66 81  0  0  0   310
PCApply              165 1.0 9.5133e-01 1.0 2.29e+08 1.0 0.0e+00 0.0e+00 0.0e+00 10  9  0  0  0  10  9  0  0  0   241
VecMDot              155 1.0 5.8355e-03 1.0 3.80e+06 1.0 0.0e+00 0.0e+00 0.0e+00  0  0  0  0  0   0  0  0  0  0   652
VecNorm              165 1.0 1.0595e-03 1.0 2.69e+05 1.0 0.0e+00 0.0e+00 0.0e+00  0  0  0  0  0   0  0  0  0  0   254
VecScale             165 1.0 5.7857e-03 1.0 1.35e+05 1.0 0.0e+00 0.0e+00 0.0e+00  0  0  0  0  0   0  0  0  0  0    23
VecCopy               15 1.0 8.9645e-05 1.0 0.00e+00 0.0 0.0e+00 0.0e+00 0.0e+00  0  0  0  0  0   0  0  0  0  0     0
VecSet               200 1.0 7.2145e-04 1.0 0.00e+00 0.0 0.0e+00 0.0e+00 0.0e+00  0  0  0  0  0   0  0  0  0  0     0
VecAXPY               15 1.0 4.3368e-04 1.0 2.45e+04 1.0 0.0e+00 0.0e+00 0.0e+00  0  0  0  0  0   0  0  0  0  0    57
VecMAXPY             165 1.0 7.2351e-03 1.0 4.06e+06 1.0 0.0e+00 0.0e+00 0.0e+00  0  0  0  0  0   0  0  0  0  0   561
VecNormalize         165 1.0 8.0917e-03 1.0 4.04e+05 1.0 0.0e+00 0.0e+00 0.0e+00  0  0  0  0  0   0  0  0  0  0    50
Getting LaplaceBox    4084 1.0 5.9947e-01 1.0 0.00e+00 0.0 0.0e+00 0.0e+00 0.0e+00  6  0  0  0  0   6  0  0  0  0     0
SRMG                   1 1.0 9.3220e+00 1.0 2.37e+09 1.0 0.0e+00 0.0e+00 0.0e+00 94 96  0  0  0  94 96  0  0  0   254
Recursive old LaplaceBox    3600 1.0 6.6118e-02 1.0 0.00e+00 0.0 0.0e+00 0.0e+00 0.0e+00  1  0  0  0  0   1  0  0  0  0     0
FreeingPatches         1 1.0 4.1485e-05 1.0 0.00e+00 0.0 0.0e+00 0.0e+00 0.0e+00  0  0  0  0  0   0  0  0  0  0     0
------------------------------------------------------------------------------------------------------------------------

Memory usage is given in bytes:

Object Type          Creations   Destructions     Memory  Descendants' Mem.
Reports information only for process 0.

--- Event Stage 0: Main Stage

       Krylov Solver     1              1        86624     0.
              Matrix    11             11     57509192     0.
      Preconditioner     1              1          992     0.
              Vector   185            185      1491544     0.
           Index Set    10             10         7760     0.
              Viewer     1              0            0     0.
========================================================================================================================
Average time to get PetscTime(): 4.76837e-08
#PETSc Option Table entries:
-L 1
-N 24
-buffer .3
-history logchebN_24_L_1_buffer_.3.txt
-log_view
#End of PETSc Option Table entries
Compiled without FORTRAN kernels
Compiled with full precision matrices (default)
sizeof(short) 2 sizeof(int) 4 sizeof(long) 8 sizeof(void*) 8 sizeof(PetscScalar) 8 sizeof(PetscInt) 4
Configure options: --download-mpich --download-f2cblaslapack=1 --download-fftw
-----------------------------------------
Libraries compiled on Fri Aug 25 22:20:03 2017 on jrt54-Blade 
Machine characteristics: Linux-4.10.0-32-generic-x86_64-with-Ubuntu-16.04-xenial
Using PETSc directory: /home/jrt54/petsc
Using PETSc arch: linux-gnu-c-debug
-----------------------------------------

Using C compiler: /home/jrt54/petsc/linux-gnu-c-debug/bin/mpicc    -Wall -Wwrite-strings -Wno-strict-aliasing -Wno-unknown-pragmas -fvisibility=hidden -g3  ${COPTFLAGS} ${CFLAGS}
-----------------------------------------

Using include paths: -I/home/jrt54/petsc/linux-gnu-c-debug/include -I/home/jrt54/petsc/include -I/home/jrt54/petsc/include -I/home/jrt54/petsc/linux-gnu-c-debug/include
-----------------------------------------

Using C linker: /home/jrt54/petsc/linux-gnu-c-debug/bin/mpicc
Using libraries: -Wl,-rpath,/home/jrt54/petsc/linux-gnu-c-debug/lib -L/home/jrt54/petsc/linux-gnu-c-debug/lib -lpetsc -Wl,-rpath,/home/jrt54/petsc/linux-gnu-c-debug/lib -L/home/jrt54/petsc/linux-gnu-c-debug/lib -Wl,-rpath,/usr/lib/gcc/x86_64-linux-gnu/5 -L/usr/lib/gcc/x86_64-linux-gnu/5 -Wl,-rpath,/usr/lib/x86_64-linux-gnu -L/usr/lib/x86_64-linux-gnu -Wl,-rpath,/lib/x86_64-linux-gnu -L/lib/x86_64-linux-gnu -lfftw3_mpi -lfftw3 -lf2clapack -lf2cblas -lm -lpthread -lm -lmpicxx -lstdc++ -lm -ldl -lmpi -lgcc_s -ldl
-----------------------------------------

---------------------------------------------------------
Finished at Wed Oct 11 01:00:34 2017
---------------------------------------------------------
