---------------------------------------------------------
Petsc Release Version 3.7.6, unknown  Mon Oct 16 11:15:17 2017
./SRMGfourier on a linux-gn, 1 proc. with options:
---------------------------------------------------------
[0]PETSC ERROR: [0]PETSC ERROR: [0]PETSC ERROR: [0]PETSC ERROR: [0]PETSC ERROR: [0]PETSC ERROR: [0]PETSC ERROR: [0]PETSC ERROR: [0]PETSC ERROR: [0]PETSC ERROR: [0]PETSC ERROR: [0]PETSC ERROR: [0]PETSC ERROR: [0]PETSC ERROR: [0]PETSC ERROR: [0]PETSC ERROR: [0]PETSC ERROR: [0]PETSC ERROR: [0]PETSC ERROR: [0]PETSC ERROR: [0]PETSC ERROR: [0]PETSC ERROR: [0]PETSC ERROR: [0]PETSC ERROR: [0]PETSC ERROR: 