---------------------------------------------------------
Petsc Release Version 3.7.6, unknown  Wed Oct 11 00:58:46 2017
./SRMGfourier on a linux-gn, 1 proc. with options:
---------------------------------------------------------
************************************************************************************************************************
***             WIDEN YOUR WINDOW TO 120 CHARACTERS.  Use 'enscript -r -fCourier9' to print this document            ***
************************************************************************************************************************

---------------------------------------------- PETSc Performance Summary: ----------------------------------------------

./SRMGfourier on a linux-gnu-c-debug named jrt54-Blade with 1 processor, by jrt54 Wed Oct 11 00:58:46 2017
Using Petsc Release Version 3.7.6, unknown 

                         Max       Max/Min        Avg      Total 
Time (sec):           6.118e-02      1.00000   6.118e-02
Objects:              3.010e+02      1.00000   3.010e+02
Flops:                2.220e+06      1.00000   2.220e+06  2.220e+06
Flops/sec:            3.628e+07      1.00000   3.628e+07  3.628e+07
Memory:               4.262e+05      1.00000              4.262e+05
MPI Messages:         0.000e+00      0.00000   0.000e+00  0.000e+00
MPI Message Lengths:  0.000e+00      0.00000   0.000e+00  0.000e+00
MPI Reductions:       0.000e+00      0.00000

Flop counting convention: 1 flop = 1 real number operation of type (multiply/divide/add/subtract)
                            e.g., VecAXPY() for real vectors of length N --> 2N flops
                            and VecAXPY() for complex vectors of length N --> 8N flops

Summary of Stages:   ----- Time ------  ----- Flops -----  --- Messages ---  -- Message Lengths --  -- Reductions --
                        Avg     %Total     Avg     %Total   counts   %Total     Avg         %Total   counts   %Total 
 0:      Main Stage: 6.1172e-02 100.0%  2.2198e+06 100.0%  0.000e+00   0.0%  0.000e+00        0.0%  0.000e+00   0.0% 

------------------------------------------------------------------------------------------------------------------------
See the 'Profiling' chapter of the users' manual for details on interpreting output.
Phase summary info:
   Count: number of times phase was executed
   Time and Flops: Max - maximum over all processors
                   Ratio - ratio of maximum to minimum over all processors
   Mess: number of messages sent
   Avg. len: average message length (bytes)
   Reduct: number of global reductions
   Global: entire computation
   Stage: stages of a computation. Set stages with PetscLogStagePush() and PetscLogStagePop().
      %T - percent time in this phase         %F - percent flops in this phase
      %M - percent messages in this phase     %L - percent message lengths in this phase
      %R - percent reductions in this phase
   Total Mflop/s: 10e-6 * (sum of flops over all processors)/(max time over all processors)
------------------------------------------------------------------------------------------------------------------------


      ##########################################################
      #                                                        #
      #                          WARNING!!!                    #
      #                                                        #
      #   This code was compiled with a debugging option,      #
      #   To get timing results run ./configure                #
      #   using --with-debugging=no, the performance will      #
      #   be generally two or three times faster.              #
      #                                                        #
      ##########################################################


Event                Count      Time (sec)     Flops                             --- Global ---  --- Stage ---   Total
                   Max Ratio  Max     Ratio   Max  Ratio  Mess   Avg len Reduct  %T %F %M %L %R  %T %F %M %L %R Mflop/s
------------------------------------------------------------------------------------------------------------------------

--- Event Stage 0: Main Stage

coarsesolve            1 1.0 1.1682e-02 1.0 2.70e+05 1.0 0.0e+00 0.0e+00 0.0e+00 19 12  0  0  0  19 12  0  0  0    23
KSPGMRESOrthog       155 1.0 5.8939e-03 1.0 4.30e+05 1.0 0.0e+00 0.0e+00 0.0e+00 10 19  0  0  0  10 19  0  0  0    73
KSPSetUp               5 1.0 4.1747e-04 1.0 0.00e+00 0.0 0.0e+00 0.0e+00 0.0e+00  1  0  0  0  0   1  0  0  0  0     0
KSPSolve               5 1.0 3.0140e-02 1.0 2.22e+06 1.0 0.0e+00 0.0e+00 0.0e+00 49100  0  0  0  49100  0  0  0    74
MatMult              160 1.0 4.6530e-03 1.0 6.90e+05 1.0 0.0e+00 0.0e+00 0.0e+00  8 31  0  0  0   8 31  0  0  0   148
MatSolve             165 1.0 5.5552e-03 1.0 7.12e+05 1.0 0.0e+00 0.0e+00 0.0e+00  9 32  0  0  0   9 32  0  0  0   128
MatLUFactorSym         5 1.0 7.3910e-06 1.0 0.00e+00 0.0 0.0e+00 0.0e+00 0.0e+00  0  0  0  0  0   0  0  0  0  0     0
MatLUFactorNum         5 1.0 1.1773e-03 1.0 3.45e+05 1.0 0.0e+00 0.0e+00 0.0e+00  2 16  0  0  0   2 16  0  0  0   293
MatAssemblyBegin       6 1.0 1.0014e-05 1.0 0.00e+00 0.0 0.0e+00 0.0e+00 0.0e+00  0  0  0  0  0   0  0  0  0  0     0
MatAssemblyEnd         6 1.0 8.5831e-06 1.0 0.00e+00 0.0 0.0e+00 0.0e+00 0.0e+00  0  0  0  0  0   0  0  0  0  0     0
Chebpolystuff       1752 1.0 2.3205e-03 1.0 0.00e+00 0.0 0.0e+00 0.0e+00 0.0e+00  4  0  0  0  0   4  0  0  0  0     0
PCSetUp                5 1.0 1.6994e-03 1.0 3.45e+05 1.0 0.0e+00 0.0e+00 0.0e+00  3 16  0  0  0   3 16  0  0  0   203
PCApply              165 1.0 6.2058e-03 1.0 7.12e+05 1.0 0.0e+00 0.0e+00 0.0e+00 10 32  0  0  0  10 32  0  0  0   115
VecDot               288 1.0 5.6937e-03 1.0 4.32e+03 1.0 0.0e+00 0.0e+00 0.0e+00  9  0  0  0  0   9  0  0  0  0     1
VecMDot              155 1.0 1.9445e-03 1.0 2.14e+05 1.0 0.0e+00 0.0e+00 0.0e+00  3 10  0  0  0   3 10  0  0  0   110
VecNorm              165 1.0 3.9554e-04 1.0 1.51e+04 1.0 0.0e+00 0.0e+00 0.0e+00  1  1  0  0  0   1  1  0  0  0    38
VecScale             165 1.0 3.5763e-03 1.0 7.66e+03 1.0 0.0e+00 0.0e+00 0.0e+00  6  0  0  0  0   6  0  0  0  0     2
VecCopy               15 1.0 5.1260e-05 1.0 0.00e+00 0.0 0.0e+00 0.0e+00 0.0e+00  0  0  0  0  0   0  0  0  0  0     0
VecSet               292 1.0 7.1287e-04 1.0 0.00e+00 0.0 0.0e+00 0.0e+00 0.0e+00  1  0  0  0  0   1  0  0  0  0     0
VecAXPY               15 1.0 3.4714e-04 1.0 1.39e+03 1.0 0.0e+00 0.0e+00 0.0e+00  1  0  0  0  0   1  0  0  0  0     4
VecMAXPY             165 1.0 2.4781e-03 1.0 2.31e+05 1.0 0.0e+00 0.0e+00 0.0e+00  4 10  0  0  0   4 10  0  0  0    93
VecNormalize         165 1.0 4.8254e-03 1.0 2.28e+04 1.0 0.0e+00 0.0e+00 0.0e+00  8  1  0  0  0   8  1  0  0  0     5
SRMG                   1 1.0 4.8947e-02 1.0 1.95e+06 1.0 0.0e+00 0.0e+00 0.0e+00 80 88  0  0  0  80 88  0  0  0    40
InverseFourier        72 1.0 9.1043e-03 1.0 4.32e+03 1.0 0.0e+00 0.0e+00 0.0e+00 15  0  0  0  0  15  0  0  0  0     0
FreeingPatches         1 1.0 1.0586e-04 1.0 0.00e+00 0.0 0.0e+00 0.0e+00 0.0e+00  0  0  0  0  0   0  0  0  0  0     0
------------------------------------------------------------------------------------------------------------------------

Memory usage is given in bytes:

Object Type          Creations   Destructions     Memory  Descendants' Mem.
Reports information only for process 0.

--- Event Stage 0: Main Stage

       Krylov Solver     1              1        86624     0.
              Matrix    11             11       216408     0.
      Preconditioner     1              1          992     0.
              Vector   277            205       383320     0.
           Index Set    10             10         7760     0.
              Viewer     1              0            0     0.
========================================================================================================================
Average time to get PetscTime(): 2.38419e-08
#PETSc Option Table entries:
-L 1
-N 8
-buffer .1
-history logfourierN_8_L_1_buffer_.1.txt
-log_view
#End of PETSc Option Table entries
Compiled without FORTRAN kernels
Compiled with full precision matrices (default)
sizeof(short) 2 sizeof(int) 4 sizeof(long) 8 sizeof(void*) 8 sizeof(PetscScalar) 8 sizeof(PetscInt) 4
Configure options: --download-mpich --download-f2cblaslapack=1 --download-fftw
-----------------------------------------
Libraries compiled on Fri Aug 25 22:20:03 2017 on jrt54-Blade 
Machine characteristics: Linux-4.10.0-32-generic-x86_64-with-Ubuntu-16.04-xenial
Using PETSc directory: /home/jrt54/petsc
Using PETSc arch: linux-gnu-c-debug
-----------------------------------------

Using C compiler: /home/jrt54/petsc/linux-gnu-c-debug/bin/mpicc    -Wall -Wwrite-strings -Wno-strict-aliasing -Wno-unknown-pragmas -fvisibility=hidden -g3  ${COPTFLAGS} ${CFLAGS}
-----------------------------------------

Using include paths: -I/home/jrt54/petsc/linux-gnu-c-debug/include -I/home/jrt54/petsc/include -I/home/jrt54/petsc/include -I/home/jrt54/petsc/linux-gnu-c-debug/include
-----------------------------------------

Using C linker: /home/jrt54/petsc/linux-gnu-c-debug/bin/mpicc
Using libraries: -Wl,-rpath,/home/jrt54/petsc/linux-gnu-c-debug/lib -L/home/jrt54/petsc/linux-gnu-c-debug/lib -lpetsc -Wl,-rpath,/home/jrt54/petsc/linux-gnu-c-debug/lib -L/home/jrt54/petsc/linux-gnu-c-debug/lib -Wl,-rpath,/usr/lib/gcc/x86_64-linux-gnu/5 -L/usr/lib/gcc/x86_64-linux-gnu/5 -Wl,-rpath,/usr/lib/x86_64-linux-gnu -L/usr/lib/x86_64-linux-gnu -Wl,-rpath,/lib/x86_64-linux-gnu -L/lib/x86_64-linux-gnu -lfftw3_mpi -lfftw3 -lf2clapack -lf2cblas -lm -lpthread -lm -lmpicxx -lstdc++ -lm -ldl -lmpi -lgcc_s -ldl
-----------------------------------------

---------------------------------------------------------
Finished at Wed Oct 11 00:58:46 2017
---------------------------------------------------------
