---------------------------------------------------------
Petsc Release Version 3.7.6, unknown  Tue Oct 17 02:11:28 2017
./SRMGfourier on a linux-gn, 1 proc. with options:
---------------------------------------------------------
[0]PETSC ERROR: [0]PETSC ERROR: [0]PETSC ERROR: [0]PETSC ERROR: [0]PETSC ERROR: [0]PETSC ERROR: [0]PETSC ERROR: [0]PETSC ERROR: [0]PETSC ERROR: [0]PETSC ERROR: [0]PETSC ERROR: [0]PETSC ERROR: [0]PETSC ERROR: [0]PETSC ERROR: [0]PETSC ERROR: [0]PETSC ERROR: [0]PETSC ERROR: [0]PETSC ERROR: [0]PETSC ERROR: [0]PETSC ERROR: [0]PETSC ERROR: [0]PETSC ERROR: [0]PETSC ERROR: [0]PETSC ERROR: [0]PETSC ERROR: [0]PETSC ERROR: [0]PETSC ERROR: [0]PETSC ERROR: 