---------------------------------------------------------
Petsc Release Version 3.7.6, unknown  Tue Oct 17 20:42:04 2017
./SRMGtree on a linux-gn, 1 proc. with options:
---------------------------------------------------------
************************************************************************************************************************
***             WIDEN YOUR WINDOW TO 120 CHARACTERS.  Use 'enscript -r -fCourier9' to print this document            ***
************************************************************************************************************************

---------------------------------------------- PETSc Performance Summary: ----------------------------------------------

./SRMGtree on a linux-gnu-c-debug named jrt54-Blade with 1 processor, by jrt54 Tue Oct 17 20:42:09 2017
Using Petsc Release Version 3.7.6, unknown 

                         Max       Max/Min        Avg      Total 
Time (sec):           4.560e+00      1.00000   4.560e+00
Objects:              1.353e+04      1.00000   1.353e+04
Flops:                2.161e+07      1.00000   2.161e+07  2.161e+07
Flops/sec:            4.740e+06      1.00000   4.740e+06  4.740e+06
Memory:               8.231e+05      1.00000              8.231e+05
MPI Messages:         0.000e+00      0.00000   0.000e+00  0.000e+00
MPI Message Lengths:  0.000e+00      0.00000   0.000e+00  0.000e+00
MPI Reductions:       0.000e+00      0.00000

Flop counting convention: 1 flop = 1 real number operation of type (multiply/divide/add/subtract)
                            e.g., VecAXPY() for real vectors of length N --> 2N flops
                            and VecAXPY() for complex vectors of length N --> 8N flops

Summary of Stages:   ----- Time ------  ----- Flops -----  --- Messages ---  -- Message Lengths --  -- Reductions --
                        Avg     %Total     Avg     %Total   counts   %Total     Avg         %Total   counts   %Total 
 0:      Main Stage: 4.5598e+00 100.0%  2.1614e+07 100.0%  0.000e+00   0.0%  0.000e+00        0.0%  0.000e+00   0.0% 

------------------------------------------------------------------------------------------------------------------------
See the 'Profiling' chapter of the users' manual for details on interpreting output.
Phase summary info:
   Count: number of times phase was executed
   Time and Flops: Max - maximum over all processors
                   Ratio - ratio of maximum to minimum over all processors
   Mess: number of messages sent
   Avg. len: average message length (bytes)
   Reduct: number of global reductions
   Global: entire computation
   Stage: stages of a computation. Set stages with PetscLogStagePush() and PetscLogStagePop().
      %T - percent time in this phase         %F - percent flops in this phase
      %M - percent messages in this phase     %L - percent message lengths in this phase
      %R - percent reductions in this phase
   Total Mflop/s: 10e-6 * (sum of flops over all processors)/(max time over all processors)
------------------------------------------------------------------------------------------------------------------------


      ##########################################################
      #                                                        #
      #                          WARNING!!!                    #
      #                                                        #
      #   This code was compiled with a debugging option,      #
      #   To get timing results run ./configure                #
      #   using --with-debugging=no, the performance will      #
      #   be generally two or three times faster.              #
      #                                                        #
      ##########################################################


Event                Count      Time (sec)     Flops                             --- Global ---  --- Stage ---   Total
                   Max Ratio  Max     Ratio   Max  Ratio  Mess   Avg len Reduct  %T %F %M %L %R  %T %F %M %L %R Mflop/s
------------------------------------------------------------------------------------------------------------------------

--- Event Stage 0: Main Stage

coarsesolve            1 1.0 3.5496e-03 1.0 2.85e+02 1.0 0.0e+00 0.0e+00 0.0e+00  0  0  0  0  0   0  0  0  0  0     0
KSPGMRESOrthog     10035 1.0 3.2297e-01 1.0 9.40e+06 1.0 0.0e+00 0.0e+00 0.0e+00  7 43  0  0  0   7 43  0  0  0    29
KSPSetUp             341 1.0 3.2157e-02 1.0 0.00e+00 0.0 0.0e+00 0.0e+00 0.0e+00  1  0  0  0  0   1  0  0  0  0     0
KSPSolve             341 1.0 2.1399e+00 1.0 2.16e+07 1.0 0.0e+00 0.0e+00 0.0e+00 47100  0  0  0  47100  0  0  0    10
MatMult            10349 1.0 3.7782e-01 1.0 5.13e+06 1.0 0.0e+00 0.0e+00 0.0e+00  8 24  0  0  0   8 24  0  0  0    14
MatSolve           10690 1.0 4.1545e-01 1.0 5.30e+06 1.0 0.0e+00 0.0e+00 0.0e+00  9 25  0  0  0   9 25  0  0  0    13
MatLUFactorSym       341 1.0 5.3239e-04 1.0 0.00e+00 0.0 0.0e+00 0.0e+00 0.0e+00  0  0  0  0  0   0  0  0  0  0     0
MatLUFactorNum       341 1.0 5.0746e-02 1.0 9.28e+05 1.0 0.0e+00 0.0e+00 0.0e+00  1  4  0  0  0   1  4  0  0  0    18
MatAssemblyBegin     342 1.0 6.3109e-04 1.0 0.00e+00 0.0 0.0e+00 0.0e+00 0.0e+00  0  0  0  0  0   0  0  0  0  0     0
MatAssemblyEnd       342 1.0 5.0473e-04 1.0 0.00e+00 0.0 0.0e+00 0.0e+00 0.0e+00  0  0  0  0  0   0  0  0  0  0     0
Chebpolystuff     233008 1.0 3.1821e-01 1.0 0.00e+00 0.0 0.0e+00 0.0e+00 0.0e+00  7  0  0  0  0   7  0  0  0  0     0
PCSetUp              341 1.0 8.5173e-02 1.0 9.28e+05 1.0 0.0e+00 0.0e+00 0.0e+00  2  4  0  0  0   2  4  0  0  0    11
PCApply            10690 1.0 4.5734e-01 1.0 5.30e+06 1.0 0.0e+00 0.0e+00 0.0e+00 10 25  0  0  0  10 25  0  0  0    12
VecMDot            10035 1.0 1.1304e-01 1.0 4.62e+06 1.0 0.0e+00 0.0e+00 0.0e+00  2 21  0  0  0   2 21  0  0  0    41
VecNorm            10690 1.0 2.3453e-02 1.0 3.31e+05 1.0 0.0e+00 0.0e+00 0.0e+00  1  2  0  0  0   1  2  0  0  0    14
VecScale           10690 1.0 3.7181e-01 1.0 1.71e+05 1.0 0.0e+00 0.0e+00 0.0e+00  8  1  0  0  0   8  1  0  0  0     0
VecCopy              996 1.0 3.2537e-03 1.0 0.00e+00 0.0 0.0e+00 0.0e+00 0.0e+00  0  0  0  0  0   0  0  0  0  0     0
VecSet             13155 1.0 2.9956e-02 1.0 0.00e+00 0.0 0.0e+00 0.0e+00 0.0e+00  1  0  0  0  0   1  0  0  0  0     0
VecAXPY              969 1.0 3.5265e-02 1.0 3.10e+04 1.0 0.0e+00 0.0e+00 0.0e+00  1  0  0  0  0   1  0  0  0  0     1
VecMAXPY           10690 1.0 1.2107e-01 1.0 5.09e+06 1.0 0.0e+00 0.0e+00 0.0e+00  3 24  0  0  0   3 24  0  0  0    42
VecNormalize       10690 1.0 4.4743e-01 1.0 5.02e+05 1.0 0.0e+00 0.0e+00 0.0e+00 10  2  0  0  0  10  2  0  0  0     1
Getting LaplaceBox    5444 1.0 1.9155e+00 1.0 0.00e+00 0.0 0.0e+00 0.0e+00 0.0e+00 42  0  0  0  0  42  0  0  0  0     0
SRMG                   1 1.0 4.5540e+00 1.0 2.16e+07 1.0 0.0e+00 0.0e+00 0.0e+00100100  0  0  0 100100  0  0  0     5
Recursive old LaplaceBox    5440 1.0 1.4540e+00 1.0 0.00e+00 0.0 0.0e+00 0.0e+00 0.0e+00 32  0  0  0  0  32  0  0  0  0     0
FreeingPatches         1 1.0 1.7867e-03 1.0 0.00e+00 0.0 0.0e+00 0.0e+00 0.0e+00  0  0  0  0  0   0  0  0  0  0     0
------------------------------------------------------------------------------------------------------------------------

Memory usage is given in bytes:

Object Type          Creations   Destructions     Memory  Descendants' Mem.
Reports information only for process 0.

--- Event Stage 0: Main Stage

       Krylov Solver     1              1      5817440     0.
              Matrix   683            683      3321736     0.
      Preconditioner     1              1          992     0.
              Vector 12159          12159     20134536     0.
           Index Set   682            682       529232     0.
              Viewer     1              0            0     0.
========================================================================================================================
Average time to get PetscTime(): 4.76837e-08
#PETSc Option Table entries:
-L 4
-N 4
-buffer .3
-history logchebN_4_L_4_buffer_.3.txt
-log_view
#End of PETSc Option Table entries
Compiled without FORTRAN kernels
Compiled with full precision matrices (default)
sizeof(short) 2 sizeof(int) 4 sizeof(long) 8 sizeof(void*) 8 sizeof(PetscScalar) 8 sizeof(PetscInt) 4
Configure options: --download-mpich --download-f2cblaslapack=1 --download-fftw
-----------------------------------------
Libraries compiled on Fri Aug 25 22:20:03 2017 on jrt54-Blade 
Machine characteristics: Linux-4.10.0-32-generic-x86_64-with-Ubuntu-16.04-xenial
Using PETSc directory: /home/jrt54/petsc
Using PETSc arch: linux-gnu-c-debug
-----------------------------------------

Using C compiler: /home/jrt54/petsc/linux-gnu-c-debug/bin/mpicc    -Wall -Wwrite-strings -Wno-strict-aliasing -Wno-unknown-pragmas -fvisibility=hidden -g3  ${COPTFLAGS} ${CFLAGS}
-----------------------------------------

Using include paths: -I/home/jrt54/petsc/linux-gnu-c-debug/include -I/home/jrt54/petsc/include -I/home/jrt54/petsc/include -I/home/jrt54/petsc/linux-gnu-c-debug/include
-----------------------------------------

Using C linker: /home/jrt54/petsc/linux-gnu-c-debug/bin/mpicc
Using libraries: -Wl,-rpath,/home/jrt54/petsc/linux-gnu-c-debug/lib -L/home/jrt54/petsc/linux-gnu-c-debug/lib -lpetsc -Wl,-rpath,/home/jrt54/petsc/linux-gnu-c-debug/lib -L/home/jrt54/petsc/linux-gnu-c-debug/lib -Wl,-rpath,/usr/lib/gcc/x86_64-linux-gnu/5 -L/usr/lib/gcc/x86_64-linux-gnu/5 -Wl,-rpath,/usr/lib/x86_64-linux-gnu -L/usr/lib/x86_64-linux-gnu -Wl,-rpath,/lib/x86_64-linux-gnu -L/lib/x86_64-linux-gnu -lfftw3_mpi -lfftw3 -lf2clapack -lf2cblas -lm -lpthread -lm -lmpicxx -lstdc++ -lm -ldl -lmpi -lgcc_s -ldl
-----------------------------------------

---------------------------------------------------------
Finished at Tue Oct 17 20:42:09 2017
---------------------------------------------------------
